<?xml version="1.0" encoding="UTF-8"?>
<!-- Created with Inkscape (http://www.inkscape.org/) -->
<svg width="210mm" height="297mm" version="1.1" viewBox="0 0 210 297" xmlns="http://www.w3.org/2000/svg" xmlns:cc="http://creativecommons.org/ns#" xmlns:dc="http://purl.org/dc/elements/1.1/" xmlns:rdf="http://www.w3.org/1999/02/22-rdf-syntax-ns#">
 <metadata>
  <rdf:RDF>
   <cc:Work rdf:about="">
    <dc:format>image/svg+xml</dc:format>
    <dc:type rdf:resource="http://purl.org/dc/dcmitype/StillImage"/>
    <dc:title/>
   </cc:Work>
  </rdf:RDF>
 </metadata>
 <g stroke-width=".26458">
  <path d="m36.789 97.042v-9.9219h19.844v19.844h-19.844z" fill="#fefefe"/>
  <path d="m42.875 106.11c-1.0108-0.38759-1.9471-1.05-3.0659-2.169-2.09-2.0905-2.755-3.7566-2.755-6.9027 0-3.1462 0.66501-4.8124 2.755-6.9023 2.09-2.09 3.7561-2.755 6.9023-2.755s4.8124 0.66501 6.9023 2.755c2.09 2.09 2.755 3.7561 2.755 6.9023 0 3.1462-0.66501 4.8124-2.755 6.9023-2.1172 2.1172-3.7548 2.7605-6.9784 2.7412-1.6824-0.0101-2.6983-0.16453-3.7604-0.57178zm7.3422-2.2864c0.61846-0.3181 1.1245-0.64812 1.1245-0.73336 0-0.0852-0.31208-0.40046-0.69352-0.7005-0.8569-0.67404-1.4231-1.9773-1.4231-3.2754 0-0.75437-0.23661-1.2652-1.0151-2.1913-0.55828-0.66421-1.0975-1.5395-1.1982-1.9452-0.26422-1.0643 0.23976-2.6348 1.285-4.0041l0.90918-1.1911-0.94275-0.17686c-1.4586-0.27364-3.8557 0.03878-5.0766 0.66165-1.003 0.5117-1.4622 1.0823-0.87089 1.0823 0.45304 0 1.0884 1.8134 1.0801 3.0827-0.0046 0.7059-0.18313 1.5139-0.39688 1.7965-0.21365 0.28248-0.38846 0.89697-0.38846 1.3655 0 0.62652-0.2154 1.0332-0.81405 1.5369-0.44773 0.37674-1.0232 0.68498-1.2788 0.68498-0.7163 0-0.82948 0.26878-0.43193 1.0257 0.72254 1.3758 2.6913 2.9563 4.3614 3.5014 1.2447 0.40627 4.5481 0.10859 5.7701-0.51995z" fill="#d1e7ee"/>
  <path d="m43.627 106.35c-2.6505-0.98738-4.4013-2.5237-5.714-5.0137-0.66543-1.2623-0.72711-1.6262-0.72711-4.2897 0-2.8081 0.03163-2.9687 0.89935-4.5689 1.0346-1.9079 2.3265-3.1706 4.3167-4.2192 1.2843-0.67669 1.6363-0.73688 4.309-0.73688 2.8081 0 2.9687 0.03163 4.5689 0.89935 1.9079 1.0346 3.1706 2.3265 4.2192 4.3167 0.67669 1.2843 0.73688 1.6363 0.73688 4.309s-0.06018 3.0246-0.73688 4.309c-1.0518 1.9962-2.3153 3.2858-4.2192 4.3062-1.4958 0.80164-1.9051 0.89668-4.172 0.9687-1.6549 0.0526-2.844-0.0433-3.4808-0.28049zm5.8621-2.2081c0.50932-0.20654 1.2078-0.55987 1.5523-0.78517l0.62621-0.40963-0.6007-0.30439c-1.0252-0.5195-1.6256-1.5937-1.7042-3.0488-0.07338-1.3601-0.16131-1.5423-1.5208-3.1517-1.222-1.4467-0.98908-3.6209 0.60323-5.6314l0.7923-1.0004-0.6018-0.19269c-1.2798-0.40977-3.5796-0.18018-5.0812 0.50726-0.81057 0.37109-1.4738 0.74565-1.4738 0.83236 0 0.0867 0.25487 0.50237 0.56637 0.92371 0.75859 1.0261 0.95115 3.0958 0.38912 4.1826-0.23448 0.45344-0.42633 1.1119-0.42633 1.4633 0 0.95022-0.94844 1.9886-1.9958 2.1851-0.50302 0.09437-0.91458 0.26077-0.91458 0.36979 0 0.34368 1.3474 2.2359 1.9429 2.7285 2.2466 1.8583 5.2789 2.3728 7.8467 1.3316z" fill="#a2cfdd"/>
  <path d="m43.092 106.08c-4.0686-1.7073-6.1939-5.0827-5.9931-9.5181 0.17016-3.7584 2.1554-6.7911 5.4592-8.3397 1.3185-0.61801 1.8385-0.70649 4.153-0.70649s2.8346 0.08847 4.153 0.70649c1.9227 0.90123 3.7642 2.7428 4.6655 4.6655 0.61801 1.3185 0.70649 1.8385 0.70649 4.153s-0.08847 2.8346-0.70649 4.153c-0.90211 1.9245-2.7446 3.7659-4.6655 4.6626-2.1847 1.0198-5.6381 1.1192-7.7721 0.22372zm6.7732-1.9925c0.59358-0.2632 1.2343-0.66647 1.4239-0.89616 0.29258-0.35452 0.25984-0.44454-0.21669-0.59579-0.79528-0.25241-1.581-1.6729-1.5822-2.8603-0.0012-1.1933-0.29768-1.82-1.4944-3.1584-1.4146-1.5821-1.207-3.5253 0.63576-5.9495 0.61505-0.80914 0.62395-0.86792 0.15922-1.0525-0.91147-0.36209-3.6471-0.21027-4.9031 0.27211-1.7353 0.66641-1.9774 1.0303-1.2991 1.9526 0.76119 1.0351 0.98238 2.9448 0.47234 4.0781-0.22237 0.49412-0.48076 1.3506-0.57421 1.9032-0.12681 0.74994-0.38438 1.1356-1.0154 1.5204-0.46505 0.28356-1.0539 0.516-1.3086 0.51655-0.67072 0.0014-0.57109 0.54354 0.32344 1.7599 2.1402 2.9102 6.0914 3.9675 9.3791 2.5098z" fill="#73b8cc"/>
  <path d="m43.694 106.32c-1.854-0.60218-3.8871-2.1677-5.0218-3.8669-3.2784-4.9095-1.4601-11.566 3.8748-14.186 1.3581-0.66692 1.7981-0.7457 4.1644-0.7457s2.8063 0.07877 4.1644 0.7457c1.9347 0.95007 3.6648 2.6802 4.6149 4.6149 0.66692 1.3581 0.7457 1.7981 0.7457 4.1644s-0.07877 2.8063-0.7457 4.1644c-0.94763 1.9298-2.6805 3.6658-4.5935 4.6017-1.2154 0.59465-1.9244 0.74695-3.7675 0.80931-1.4497 0.0491-2.6915-0.06-3.4357-0.30167zm4.8695-1.7577c0.58208-0.15742 1.5819-0.58877 2.2218-0.95855l1.1634-0.67233-0.81558-0.34293c-1.0223-0.42984-1.6436-1.6018-1.6436-3.1002 0-0.92748-0.17504-1.3618-0.88504-2.196-0.48677-0.5719-1.0226-1.2999-1.1906-1.6177-0.66297-1.2538-0.17389-3.3214 1.1609-4.9077 0.92625-1.1008 0.54591-1.3935-1.8105-1.3935-1.5601 0-2.1839 0.13693-3.4454 0.7564l-1.5404 0.7564 0.55297 0.58861c0.30413 0.32373 0.68866 1.2355 0.8545 2.0262 0.25172 1.2001 0.23292 1.5899-0.11376 2.3592-0.22842 0.50687-0.49086 1.369-0.58321 1.9158-0.18297 1.0833-0.92284 1.7391-2.2758 2.0171l-0.79643 0.16367 0.77524 1.2221c1.7821 2.8093 5.2749 4.221 8.3715 3.3836z" fill="#54a8c1"/>
  <path d="m43.475 106.2c-1.7041-0.63231-2.5583-1.229-4.0027-2.796-1.8039-1.957-2.2665-3.2551-2.2665-6.3594 0-2.163 0.10599-2.8771 0.58087-3.9134 0.80567-1.7581 3.015-4.008 4.7942-4.882 1.3202-0.64861 1.778-0.72946 4.1306-0.72946s2.8104 0.08085 4.1306 0.72946c1.7792 0.87409 3.9885 3.1239 4.7942 4.882 0.83722 1.8269 0.83722 5.9998 0 7.8268-0.81567 1.7799-3.0164 4.0124-4.7942 4.8632-2.0141 0.96393-5.3305 1.1345-7.367 0.3788zm5.0885-1.6393c0.58208-0.15742 1.5819-0.58877 2.2218-0.95855l1.1634-0.67233-0.81558-0.34293c-1.0304-0.43327-1.6436-1.6041-1.6436-3.1386 0-0.92869-0.16613-1.388-0.74643-2.0637-1.2851-1.4963-1.6348-2.1494-1.6348-3.0531 0-1.1176 0.51521-2.3432 1.4521-3.4543 1.0073-1.1946 0.63241-1.5074-1.796-1.4982-1.3927 0.0052-2.2252 0.16017-3.0956 0.57612-1.9352 0.92479-1.9941 0.99451-1.3681 1.6205 0.30054 0.30054 0.68708 1.0587 0.85896 1.6849 0.26281 0.95735 0.24111 1.3278-0.13643 2.3291-0.24692 0.65484-0.49853 1.5225-0.55914 1.9281-0.18849 1.2616-0.61714 1.7512-1.8471 2.1099l-1.1878 0.34636 0.76909 1.2127c1.7755 2.7997 5.2731 4.2104 8.3654 3.3742z" fill="#45a1bc"/>
  <path d="m43.69 106.28c-2.4972-0.90696-4.5116-2.7041-5.7578-5.1369-0.67084-1.3095-0.74545-1.72-0.74545-4.101 0-2.3871 0.07405-2.792 0.75738-4.1403 0.94048-1.8558 2.7586-3.6635 4.6666-4.64 1.309-0.66991 1.721-0.74472 4.101-0.74472s2.792 0.07481 4.101 0.74472c1.908 0.97643 3.7261 2.7842 4.6666 4.64 0.68332 1.3484 0.75738 1.7532 0.75738 4.1403s-0.07405 2.792-0.75738 4.1403c-0.94576 1.8662-2.7698 3.6739-4.6666 4.6248-1.8405 0.92264-5.2595 1.1496-7.1228 0.47285zm6.5088-2.3146c1.7022-0.86398 1.8159-1.0421 0.91904-1.4391-0.98694-0.43686-1.6279-1.6373-1.6279-3.0489 0-0.99768-0.17028-1.3923-1.067-2.4727-1.9233-2.3174-1.8067-3.5296 0.66074-6.868 0.43843-0.5932-0.09449-0.76775-2.3278-0.76246-1.8373 0.0043-2.3687 0.11393-3.5498 0.73206-0.76398 0.39982-1.3891 0.78447-1.3891 0.85478s0.23184 0.35968 0.51521 0.64304c0.28337 0.28336 0.65585 1.0275 0.82773 1.6536 0.26315 0.95857 0.2412 1.3265-0.1389 2.3291-0.24828 0.65484-0.54629 1.6428-0.66224 2.1955-0.23873 1.1379-0.81777 1.6803-2.0555 1.9252l-0.85221 0.16864 0.41881 0.83189c0.85697 1.7022 2.7262 3.2059 4.8575 3.9076 1.266 0.4168 4.0121 0.0904 5.4714-0.6503z" fill="#3096b5"/>
  <path d="m44.009 106.33c-2.7436-0.89598-4.8974-2.802-6.1253-5.4209-0.59182-1.2622-0.69722-1.8478-0.69722-3.8738 0-2.1581 0.08239-2.5542 0.85988-4.1335 1.0194-2.0708 2.68-3.6966 4.7823-4.6821 2.1717-1.0181 5.5939-1.0181 7.7656 0 2.1023 0.98551 3.7629 2.6113 4.7823 4.6821 0.77749 1.5793 0.85988 1.9754 0.85988 4.1335 0 2.0317-0.10474 2.6102-0.7039 3.8884-1.6036 3.4207-4.7124 5.5309-8.3752 5.6849-1.2404 0.0522-2.4682-0.0565-3.1484-0.27859zm5.1406-1.9121c0.69631-0.2355 1.611-0.67285 2.0327-0.97189 0.69974-0.49623 0.72284-0.56028 0.26458-0.73351-1.0674-0.40351-1.7401-1.4831-1.9306-3.0986-0.15321-1.2994-0.37676-1.8108-1.2966-2.966-1.5399-1.9341-1.4349-3.675 0.34748-5.7573 0.58571-0.68427 0.82512-1.1546 0.64454-1.2662-0.70882-0.43807-3.4076-0.44384-4.7862-0.01023-1.5944 0.50149-2.9469 1.4291-2.4049 1.6494 0.45515 0.18494 1.0095 1.3301 1.2279 2.5369 0.13175 0.72764 0.03519 1.3196-0.36151 2.2164-0.2977 0.673-0.54127 1.4854-0.54127 1.8053 0 0.74004-0.94522 1.6254-2.0381 1.9092l-0.84749 0.22 0.42198 0.8691c0.23209 0.478 0.99047 1.3802 1.6853 2.0049 2.0921 1.881 4.9528 2.4818 7.5821 1.5926z" fill="#1b8cae"/>
 </g>
</svg>
