<?xml version="1.0" encoding="UTF-8"?>
<!-- Created with Inkscape (http://www.inkscape.org/) -->
<svg width="210mm" height="297mm" version="1.1" viewBox="0 0 210 297" xmlns="http://www.w3.org/2000/svg" xmlns:cc="http://creativecommons.org/ns#" xmlns:dc="http://purl.org/dc/elements/1.1/" xmlns:rdf="http://www.w3.org/1999/02/22-rdf-syntax-ns#">
 <defs>
  <clipPath id="clipPath3940">
   <rect x="33.909" y="23.354" width="144.16" height="130.33" fill="#fc0" stroke-width=".53915"/>
  </clipPath>
 </defs>
 <metadata>
  <rdf:RDF>
   <cc:Work rdf:about="">
    <dc:format>image/svg+xml</dc:format>
    <dc:type rdf:resource="http://purl.org/dc/dcmitype/StillImage"/>
    <dc:title/>
   </cc:Work>
  </rdf:RDF>
 </metadata>
 <g transform="translate(-9.0362 -.34806)" clip-path="url(#clipPath3940)" stroke-width=".11259">
  <path d="m102 153.59c-0.2477-0.025-1.3117-0.12374-2.3644-0.21934-2.5595-0.23242-6.8064-0.95179-9.3233-1.5792-2.2311-0.55621-6.6106-1.9741-8.5784-2.7773-11.757-4.7988-21.553-12.56-28.961-22.944-1.3321-1.8673-1.3429-1.8839-2.9189-4.5191-2.1661-3.6218-4.3317-8.3673-5.732-12.56-0.49926-1.495-1.2872-4.2338-1.2872-4.4741 0-0.0317 0.0973-0.0577 0.21623-0.0577 0.15292 0 0.23904 0.10715 0.29413 0.36592 0.2985 1.4021 2.2731 7.28 2.5417 7.566 0.05525 0.0588 0.10045 0.17836 0.10045 0.26562 0 0.57283 2.8527 6.329 4.4745 9.0286 1.665 2.7714 3.8538 5.8784 5.5767 7.9158 0.38558 0.45598 0.8422 1.0013 1.0147 1.2119 1.3417 1.6378 5.3417 5.5778 7.455 7.3432 1.1512 0.9617 3.831 2.9999 4.8413 3.6822 1.9135 1.2922 2.9194 1.9314 3.9969 2.5399 1.0679 0.60303 3.9701 2.1891 4.0057 2.1891 0.01868 0 0.53099 0.23418 1.1385 0.52041 2.7992 1.3189 4.7944 2.1004 7.9161 3.1005 6.869 2.2006 13.318 3.1259 20.829 2.9886 5.2725-0.0963 9.6615-0.65639 14.341-1.8299 5.9883-1.5018 11.213-3.6288 17.098-6.9603 2.9292-1.6582 7.6255-5.0728 10.219-7.4298 8.1588-7.4154 13.85-15.655 17.61-25.496 0.79931-2.0918 1.6454-4.6611 1.9998-6.073 0.18846-0.75073 0.27372-0.92886 0.44454-0.92886 0.26148 0 0.26728-0.0934-0.0791 1.274-1.4716 5.81-4.7843 13.068-8.5913 18.823-3.1103 4.702-7.543 9.7252-11.722 13.284-0.6502 0.55367-1.2075 1.0399-1.2385 1.0806-0.16846 0.22121-4.0045 3.0283-5.4043 3.9546-2.5123 1.6626-4.3159 2.6911-7.262 4.1411-7.1475 3.518-13.947 5.4704-22.18 6.3691-1.6017 0.17483-9.2802 0.32457-10.471 0.20418zm-0.957-2.0831c-9.2162-0.74778-18.3-3.5516-26.266-8.1074-10.98-6.2793-20.03-15.918-25.511-27.169-1.7936-3.682-2.9613-6.7728-4.2237-11.18l-0.16931-0.5911h4.1377l0.18799 0.64739c0.32412 1.1162 1.3535 4.0801 1.9062 5.4887 0.72037 1.8358 2.891 6.1985 3.9924 8.0242 7.5998 12.598 18.938 21.696 32.604 26.162 4.3283 1.4147 7.61 2.085 13.229 2.7023 1.7333 0.1904 8.4214 0.19136 10.133 1e-3 5.9486-0.66004 9.0588-1.3133 13.801-2.8986 8.7753-2.9335 17.042-8.1424 23.449-14.775 5.7172-5.9187 9.9794-12.535 12.858-19.96 0.55556-1.4328 1.427-3.9935 1.6846-4.9502l0.11916-0.44254h4.136l-0.0565 0.25332c-0.32049 1.4378-1.5322 5.096-2.3526 7.1022-1.3117 3.2078-1.9556 4.5396-3.9287 8.1257-0.83834 1.5237-2.8345 4.5549-4.152 6.3048-2.0587 2.7346-3.693 4.5984-6.318 7.2057-3.0969 3.0759-6.1344 5.5281-9.9086 7.9991-8.6928 5.6913-18.589 9.095-29.107 10.011-2.1524 0.18748-8.1673 0.21427-10.246 0.0456zm1.6325-6.8607c-3.6879-0.21405-6.2658-0.58995-9.7389-1.4201-4.3668-1.0438-8.1195-2.4214-12.216-4.4843-2.6747-1.347-3.2445-1.6739-5.4934-3.1515-4.2724-2.8072-8.447-6.3966-11.393-9.7952-0.48301-0.55731-1.0275-1.1814-1.21-1.3869-1.0279-1.1574-3.1159-4.0783-4.8437-6.7758-0.78849-1.231-2.7018-4.8603-3.3536-6.3613-1.111-2.5584-2.0351-5.0996-2.7434-7.5434l-0.48946-1.6888-8.639-0.0289c-7.3659-0.0246-8.6301-0.0522-8.5783-0.18708 0.03339-0.087 0.19489-0.91001 0.35887-1.8289 0.16399-0.91885 0.45419-2.5066 0.6449-3.5284 0.4266-2.2855 0.45092-3.5681 0.10248-5.4043-0.13514-0.71212-0.29957-1.5988-0.3654-1.9703-0.06583-0.37154-0.26045-1.4526-0.43247-2.4023-0.21635-1.1945-0.27444-1.7415-0.18842-1.7745 0.06839-0.02621 7.0654-0.03446 15.549-0.01832l15.425 0.02934 0.07129 3.4903c0.07416 3.6308 0.19251 4.8687 0.73197 7.656 1.7724 9.1582 6.6965 17.505 13.89 23.544 4.6815 3.9307 10.361 6.8428 16.213 8.3135 5.4575 1.3715 11.459 1.587 17.15 0.6158 6.7944-1.1593 13.346-4.2014 18.991-8.8179 1.3841-1.132 4.5245-4.3174 5.6493-5.7303 3.8473-4.8325 6.4057-9.9496 7.8648-15.73 0.89088-3.5293 1.1294-5.4671 1.2025-9.7684 0.059-3.4739 0.0629-3.5204 0.29948-3.5774 0.13183-0.03175 7.1301-0.04384 15.552-0.02687 13.534 0.02727 15.309 0.05046 15.289 0.19973-0.0129 0.09288-0.30391 1.7525-0.64666 3.6879-0.83201 4.6983-0.82765 4.6238-0.41013 7.008 0.81825 4.6727 1.0161 5.7652 1.0817 5.9718 0.0685 0.21567-0.0675 0.21961-8.5633 0.248l-8.6329 0.0289-0.43711 1.5173c-2.4431 8.4808-6.646 16.086-12.476 22.577-0.27813 0.30962-1.3109 1.3635-2.295 2.3419-6.917 6.8771-15.41 11.759-24.99 14.366-5.6495 1.5372-11.829 2.1594-17.928 1.8054zm3.2821-3.9332h0.60225v-0.90071h-0.50451c-0.42971 0-0.51372-0.0376-0.56668-0.25333-0.0342-0.13933-0.0478-1.292-0.0303-2.5614l0.0319-2.3081 0.66091 1.1259c0.36349 0.61923 1.163 1.9745 1.7768 3.0118l1.1158 1.8859h1.1544l-0.0781-3.2587-0.0781-3.2587 0.53892-0.0345c0.52101-0.0333 0.54089-0.0476 0.59849-0.42855l0.0596-0.39406 0.0813 0.38072c0.079 0.36983 0.0942 0.37899 0.53316 0.32011 0.5217-0.07 0.60318 0.0221 0.72505 0.81912 0.0426 0.27866 0.22466 1.292 0.40456 2.2518 0.46097 2.4594 0.46135 2.2947-6e-3 2.363-0.34111 0.0499-0.398 0.10303-0.42339 0.39541-0.0538 0.61996 5e-3 0.62892 1.8321 0.27823 1.9905-0.38209 2.4186-0.49877 3.0948-0.84341 1.1038-0.56261 1.57-1.4143 1.5738-2.8751 4e-3 -1.7085-0.64841-2.9908-1.8502-3.6342-0.68221-0.36526-2.1144-0.32265-4.3874 0.13055-1.4534 0.28978-2.0662 0.35745-3.2369 0.35745h-1.4442v0.90071h0.97993l0.0723 0.92886c0.0398 0.51087 0.0704 1.5875 0.068 2.3925l-4e-3 1.4636-0.24834-0.42982c-0.13659-0.23639-0.55233-0.93223-0.92388-1.5463-0.37154-0.61409-1.0025-1.6746-1.4021-2.3568l-0.72657-1.2402h-2.5438v0.90071h0.5c0.27501 0 0.52582 0.0418 0.55737 0.0928 0.0316 0.0511 0.0654 1.2797 0.0753 2.7303l0.018 2.6375-0.51904 0.0343-0.51904 0.0343v0.42541c0 0.23399 0.038 0.46485 0.0844 0.51304 0.0464 0.0482 0.45941 0.0566 0.9177 0.0188 0.45829-0.0379 1.1043-0.0688 1.4355-0.0688zm8.5457-1.7029c-0.0737-0.21086-0.96291-4.923-0.96291-5.1029 0-0.18858 1.0677-0.40004 2.0172-0.3995 1.319 7.8e-4 2.0727 0.73058 2.3601 2.2855 0.14051 0.76006 7e-3 1.6766-0.30741 2.105-0.42517 0.58006-1.3111 0.98954-2.5762 1.1908-0.35547 0.0565-0.49039 0.0365-0.53077-0.079zm-11.982 1.2526c0.0948-0.46338 0.10017-0.45543-0.37525-0.55209-0.34937-0.071-0.37972-0.11576-0.50671-0.74692-0.0743-0.36925-0.34029-1.6563-0.59109-2.8601-0.25081-1.2038-0.45601-2.2044-0.45601-2.2236 0-0.0192 0.19717-0.0349 0.43815-0.0349 0.37985 0 0.44809-0.0396 0.51288-0.29776 0.0411-0.16376 0.0339-0.33464-0.0159-0.37972-0.13569-0.12266-3.4949-0.59268-3.6317-0.50814-0.06499 0.0402-0.11816 0.21661-0.11816 0.3921 0 0.32423 0.16512 0.45575 0.57215 0.45575 0.25482 0 0.2704 0.0949 0.06524 0.39716-0.0829 0.12215-0.5862 1.0581-1.1184 2.0798-1.6193 3.1087-1.4218 2.8247-1.9396 2.7892-0.44435-0.0304-0.45082-0.0253-0.48492 0.38509-0.03349 0.40299-0.02126 0.41796 0.39406 0.4825 0.23575 0.0366 0.70307 0.11546 1.0385 0.17518 0.33543 0.0597 0.77472 0.1086 0.97621 0.1086 0.31483 0 0.37668-0.0471 0.43992-0.33502 0.09586-0.43646 0.0045-0.56569-0.4001-0.56569-0.18212 0-0.33112-0.0562-0.33112-0.12498 0-0.0687 0.15905-0.42339 0.35345-0.78812 0.39265-0.73668 0.37539-0.7306 1.5606-0.5498 1.5899 0.24255 1.4266 0.14441 1.5652 0.94035 0.17615 1.0115 0.18096 0.99564-0.28926 0.95356-0.37514-0.0336-0.42118-6e-3 -0.50372 0.29811-0.05493 0.20263-0.04559 0.38064 0.02363 0.45036 0.11212 0.11292 2.2533 0.50233 2.5773 0.46874 0.0914-9e-3 0.20006-0.19139 0.2447-0.40967zm-3.7002-3.5962c-0.26203-0.0427-0.51057-0.1118-0.55231-0.15355-0.0877-0.0877 1.2066-2.7805 1.3364-2.7805 0.0475 0 0.0867 0.038 0.08711 0.0844 4.5e-4 0.0464 0.1014 0.66709 0.22443 1.3792 0.12302 0.71212 0.22402 1.3581 0.22443 1.4355 7.9e-4 0.15329-0.51069 0.16683-1.3201 0.0349zm-7.3898 0.12335c0.5667-1.6148 0.56196-1.7138-0.08347-1.7447-0.36011-0.0172-0.38402 8e-3 -0.61821 0.6576-0.13398 0.37154-0.3214 0.86164-0.41648 1.0891l-0.17287 0.41357-0.93821-0.34293c-0.51602-0.18862-0.97847-0.37953-1.0277-0.42423-0.04921-0.0447 0.32616-1.2315 0.83416-2.6372 0.70345-1.9466 0.96213-2.5411 1.0851-2.494 0.5507 0.21133 0.69836 0.19542 0.82804-0.0892 0.07162-0.15718 0.1024-0.35826 0.06842-0.44684-0.05179-0.13496-2.6658-1.1604-2.7192-1.0666-0.08866 0.15571-0.28851 0.68184-0.28851 0.75954 0 0.0542 0.17733 0.15709 0.39406 0.22861 0.21673 0.0715 0.39406 0.19841 0.39406 0.28196 0 0.19893-1.6958 4.8082-1.821 4.9494-0.06131 0.0692-0.22664 0.0593-0.45584-0.0272-0.41353-0.15609-0.50677-0.0964-0.60335 0.38657-0.06798 0.33992-0.05386 0.35381 0.58898 0.57966 0.65588 0.23044 1.6471 0.59579 3.3608 1.2388 0.49539 0.18586 0.93813 0.30284 0.98387 0.25996 0.04574-0.0429 0.31904-0.75017 0.60734-1.5717zm35.034-0.0222c0.6006-0.25029 1.2065-0.50275 1.3464-0.56103 0.23897-0.0996 0.24518-0.12833 0.10221-0.47381-0.15548-0.37572-0.25176-0.40421-0.86329-0.25547-0.27304 0.0664-0.31097-4e-3 -1.2666-2.3377-0.54184-1.3234-0.98516-2.4637-0.98516-2.534 0-0.12839 0.92233-0.58866 1.1796-0.58866 0.0757 0 0.27795 0.33005 0.44939 0.73344 0.17145 0.40338 0.35055 0.75743 0.39802 0.78677 0.10617 0.0656 0.78737-0.16296 0.78858-0.2646 2e-3 -0.17484-1.0507-2.5978-1.1135-2.5628-0.15433 0.0861-0.93209 0.42078-2.3213 0.99886-0.80501 0.33498-1.808 0.75263-2.2288 0.9281-0.42081 0.17548-0.78311 0.34846-0.8051 0.38441-0.022 0.036 0.18668 0.63142 0.46371 1.3233l0.50369 1.2579 0.33852-0.11801c0.18618-0.0649 0.36537-0.18799 0.39819-0.27352 0.0328-0.0855-0.0783-0.48008-0.24685-0.87675-0.16859-0.39668-0.27488-0.77245-0.2362-0.83504 0.11257-0.18214 1.201-0.50638 1.3155-0.39188 0.0559 0.0559 0.22299 0.40352 0.37121 0.77238 0.71331 1.7752 1.3407 3.2778 1.4857 3.5582 0.24525 0.47427 0.19633 0.64098-0.24181 0.82405-0.22119 0.0924-0.3747 0.21246-0.34115 0.26677 0.0336 0.0543 0.11195 0.23268 0.1742 0.39641 0.0623 0.16374 0.14236 0.2977 0.17801 0.2977 0.0357 0 0.55622-0.20478 1.1568-0.45505zm-41.523-1.7469c0.49695-0.94377 0.50236-0.96539 0.28229-1.1295-0.33171-0.24733-0.62526-0.15084-0.85627 0.28146-0.11285 0.21117-0.24977 0.42854-0.30428 0.48305-0.11156 0.11155-2.7246-1.2176-2.7246-1.3859 0-0.13489 0.7182-1.5518 0.92801-1.8308 0.15128-0.20119 0.20984-0.18418 1.3221 0.38402l1.1638 0.59453 0.2071-0.25575c0.1139-0.14067 0.2071-0.32281 0.2071-0.40477 0-0.082-0.50665-0.41398-1.1259-0.73781-0.61924-0.32383-1.1259-0.6528-1.1259-0.73104 0-0.11991 0.56384-1.2809 0.83576-1.7209 0.05809-0.094 0.48093 0.0744 1.4248 0.56746 0.73823 0.38562 1.3422 0.74389 1.3422 0.79615 0 0.0523-0.10133 0.29365-0.22518 0.53641s-0.22518 0.48792-0.22518 0.5448c0 0.14699 0.63762 0.39263 0.78413 0.30208 0.19063-0.11781 0.92592-1.6425 0.86662-1.797-0.02914-0.0759-0.80513-0.52534-1.7244-0.9987-0.9193-0.47336-2.0897-1.0906-2.6009-1.3716l-0.92947-0.51098-0.22591 0.36763c-0.22129 0.3601-0.22155 0.37108-0.01274 0.53651 0.11725 0.0929 0.29908 0.21955 0.40406 0.28147 0.16966 0.10007 0.09365 0.29412-0.68354 1.7451-0.48094 0.89789-1.0416 1.9745-1.2459 2.3925-0.20431 0.41798-0.42521 0.75997-0.49088 0.75997-0.06567 0-0.27359-0.0797-0.46204-0.17718-0.18845-0.0975-0.35682-0.16078-0.37415-0.14074-0.01733 0.02-0.1141 0.19889-0.21505 0.39742l-0.18354 0.36097 0.48873 0.28642c0.2688 0.15753 0.51811 0.28641 0.55401 0.28641 0.065 0 2.8853 1.4959 3.743 1.9853 0.2477 0.14133 0.50102 0.25881 0.56294 0.26106 0.06192 2e-3 0.34058-0.42889 0.61924-0.95809zm48.864-1.8607c0.88388-0.4711 1.538-1.128 1.8965-1.9046 0.23053-0.49943 0.28588-0.7935 0.28606-1.52 2.2e-4 -0.80693-0.0392-0.97458-0.37841-1.6101-0.79771-1.4946-1.8975-2.2158-3.381-2.2172-0.71699-6.8e-4 -0.95895 0.0535-1.6034 0.35877-2.2808 1.0804-2.9951 3.4747-1.6551 5.548 0.47939 0.74173 1.1696 1.2984 1.9972 1.6106 0.81837 0.30877 1.9614 0.20184 2.8382-0.26552zm-2.1318-0.68467c-0.97393-0.27971-1.8799-1.2816-2.1553-2.3835-0.28818-1.1531 0.29246-2.3275 1.4075-2.8467 1.066-0.49637 2.0624-0.30223 2.9436 0.57351 1.5688 1.5591 1.1072 4.0266-0.86273 4.6116-0.66696 0.19806-0.78652 0.20211-1.333 0.0452zm-55.402-2.6654c0.52635-0.33694 1.2103-0.7745 1.5199-0.97234 0.30962-0.19785 1.0884-0.70134 1.7305-1.1188 0.64217-0.41752 1.2411-0.78735 1.331-0.82185 0.08991-0.0345 0.30576 0.0425 0.47966 0.17104l0.31619 0.23376 0.22188-0.24675c0.41024-0.45623 0.39341-0.48832-0.65988-1.2585-0.56536-0.4134-1.0868-0.77424-1.1588-0.80186-0.07197-0.0276-0.24198 0.10008-0.37778 0.28376l-0.24692 0.33398 0.30793 0.24246 0.30793 0.24245-0.30596 0.24289c-0.50169 0.39828-3.9276 2.577-3.9761 2.5285-0.02459-0.0246 0.15554-0.72625 0.40029-1.5592 0.24475-0.83299 0.55491-1.9072 0.68923-2.3871s0.29962-0.87095 0.36731-0.86898c0.06769 2e-3 0.22142 0.078 0.34162 0.16888 0.29723 0.22482 0.32194 0.21642 0.56282-0.19135l0.21068-0.35666-0.28456-0.23443c-0.66268-0.54595-1.809-1.3334-1.96-1.3463-0.08975-8e-3 -0.24998 0.12913-0.35606 0.30407-0.18958 0.31266-0.1876 0.32232 0.11675 0.56718 0.17029 0.137 0.31046 0.29786 0.31148 0.35746 1e-3 0.0596-0.17367 0.71634-0.38821 1.4594-0.8894 3.0806-1.2985 4.5218-1.3712 4.8307-0.06605 0.28046-0.02274 0.37144 0.30361 0.63779 0.20936 0.17087 0.43215 0.27958 0.4951 0.24159 0.06295-0.038 0.54511-0.34476 1.0715-0.68171zm64.416-1.715c0.618-0.31528 1.4196-1.0712 1.6826-1.5868 0.1337-0.26209 0.21569-0.65389 0.21569-1.0308 0-0.75913-0.10706-0.92266-1.9671-3.0046-0.87313-0.9773-1.3861-1.6382-1.3363-1.7216 0.0445-0.0744 0.17261-0.20153 0.28476-0.28244 0.27477-0.19823 0.25665-0.38334-0.0673-0.6877l-0.27126-0.25482-1.0235 0.91769c-0.56293 0.50473-1.0235 0.9584-1.0235 1.0081 0 0.0497 0.10568 0.22479 0.23484 0.38899l0.23483 0.29854 0.34046-0.28648 0.34045-0.28648 0.24098 0.26741c0.68209 0.75689 2.4193 2.7567 2.6898 3.0964 0.18227 0.22889 0.30962 0.5275 0.30962 0.72597 0 0.70832-0.79503 1.523-1.5904 1.6296-0.41432 0.0556-0.47497 0.0233-1.0293-0.54713-1.1782-1.2125-2.7845-3.0506-2.7845-3.1864 0-0.0472 0.11281-0.17715 0.25068-0.28879 0.22729-0.18405 0.23632-0.22982 0.0968-0.49058-0.26149-0.4886-0.43935-0.45335-1.2319 0.24412-0.41143 0.36207-0.86206 0.75379-1.0014 0.87047-0.32374 0.27113-0.31877 0.39914 0.0282 0.72506l0.28147 0.26443 0.26058-0.24481c0.32754-0.3077 0.4249-0.30651 0.69342 9e-3 1.6927 1.9859 2.9701 3.3297 3.3807 3.5562 0.37175 0.2051 1.2596 0.15363 1.7608-0.10209zm-68.923-0.77564 0.23732-0.33329-0.22966-0.22966c-0.12631-0.12631-0.22966-0.27473-0.22966-0.32984 0-0.12715 1.2828-2.9218 1.9609-4.2721 0.5042-1.0039 0.72673-1.1878 0.89787-0.74183 0.09009 0.23477 0.33362 0.19577 0.60918-0.0976l0.24214-0.25775-1.3255-1.322-1.3255-1.322-0.26773 0.28499-0.26773 0.28499 0.26583 0.28296c0.17809 0.18957 0.22849 0.32031 0.15268 0.39611-0.06223 0.0622-0.76834 0.4103-1.5691 0.77348s-1.9487 0.89201-2.551 1.1752l-1.095 0.51484-0.34591-0.29106-0.34591-0.29106-0.27607 0.25935c-0.15184 0.14265-0.27607 0.29209-0.27607 0.3321 0 0.11584 1.8828 2.0272 1.9969 2.0272 0.05668 0 0.22205-0.12666 0.36749-0.28147l0.26443-0.28147-0.2448-0.26058c-0.13464-0.14332-0.2448-0.31373-0.2448-0.37869 0-0.11059 1.2028-0.7118 1.4241-0.7118 0.05563 0 0.50221 0.40343 0.9924 0.89651l0.89125 0.89651-0.36985 0.73603c-0.20342 0.40482-0.40783 0.73603-0.45424 0.73603-0.04641 0-0.17608-0.10133-0.28816-0.22518-0.26632-0.29428-0.41212-0.28402-0.72702 0.0512l-0.25962 0.27635 0.994 1.0184c0.5467 0.56013 1.0312 1.0184 1.0767 1.0184 0.04551 0 0.18954-0.14998 0.32007-0.33329zm-0.59143-4.8209c-0.35412-0.35785-0.64386-0.68562-0.64386-0.72837 0-0.10207 2.7129-1.4624 2.7809-1.3945 0.06835 0.0683-1.3109 2.7735-1.4141 2.7735-0.04346 0-0.36877-0.2928-0.72289-0.65066zm74.691 0.56491c0.4571-0.54254 0.89337-1.0658 0.96949-1.1627 0.11559-0.14724 0.0814-0.21843-0.20745-0.43199l-0.34585-0.25569-0.32202 0.30852-0.32203 0.30852-0.89948-0.71965c-0.49471-0.39581-0.90242-0.77615-0.90602-0.8452-0.0109-0.2093 0.44744-0.71871 0.649-0.72126 0.10387-1e-3 0.96341 0.18749 1.9101 0.41958l1.7212 0.42196 0.47426-0.55484c0.26085-0.30517 0.47427-0.6025 0.47427-0.66075 0-0.0582-0.14346-0.2127-0.31879-0.34323l-0.3188-0.23733-0.28166 0.32679c-0.31626 0.36692-0.2994 0.36818-2.3109-0.17172-0.84341-0.22637-0.86305-0.23957-0.75998-0.51067 0.20066-0.52777 0.12514-1.207-0.18021-1.6209-0.62384-0.84557-1.5597-1.1063-2.4115-0.67174-0.43077 0.21976-0.62569 0.42376-2.3148 2.4226l-0.85589 1.0129 0.31637 0.25318c0.174 0.13925 0.34489 0.25343 0.37975 0.25374 0.0349 3.4e-4 0.20728-0.14965 0.38317-0.33324l0.3198-0.3338 0.57383 0.47164c0.31561 0.25939 0.67516 0.55979 0.79901 0.66753 0.12385 0.10775 0.78249 0.65695 1.4636 1.2204s1.2551 1.0712 1.2755 1.1283c0.0203 0.0571-0.0741 0.25974-0.20985 0.4504l-0.24684 0.34664 0.25763 0.27424c0.14169 0.15082 0.29279 0.27423 0.33576 0.27423 0.043 0 0.45213-0.44391 0.90923-0.98646zm-3.6443-4.039c-0.41798-0.3474-0.75997-0.66793-0.75997-0.7123 0-0.0444 0.29244-0.39279 0.64986-0.77428 0.77862-0.83104 1.1732-0.9145 1.7232-0.36451 0.54036 0.54035 0.42223 1.0491-0.47877 2.062l-0.3743 0.42077zm-76.407 2.0895 0.32846-0.23389-0.22664-0.31829c-0.12465-0.17506-0.22664-0.37535-0.22664-0.4451 0-0.0697 0.19036-0.46724 0.42301-0.88333 0.23266-0.41609 0.52284-0.94651 0.64484-1.1787 0.24966-0.47518 0.34164-0.50391 0.73384-0.2292 0.46024 0.32236 1.3259 0.25772 1.8844-0.14073 0.93038-0.66365 1.0561-1.6797 0.34875-2.8191-0.48465-0.78071-2.0461-2.9644-2.1209-2.9659-0.03096-6.8e-4 -0.20271 0.11856-0.38167 0.2649l-0.32537 0.26607 0.24977 0.35076c0.13737 0.19292 0.23312 0.39761 0.21278 0.45487-0.03517 0.099-3.3387 2.5236-4.0602 2.98l-0.34202 0.21633-0.30362-0.37201c-0.30127-0.36913-0.30595-0.37048-0.60394-0.17523-0.16518 0.10823-0.30032 0.24495-0.30032 0.30382 0 0.21929 0.38603 0.79206 1.645 2.4407 0.048 0.0628 0.71937-0.4388 0.71937-0.53752 0-0.0482-0.10133-0.20453-0.22518-0.34733-0.12385-0.14279-0.22351-0.28988-0.22147-0.32684 0.0033-0.0606 1.5502-1.218 1.8748-1.4028 0.0779-0.0443 0.2571 0.0862 0.43074 0.31389l0.29734 0.38983-0.70474 1.3292c-0.38761 0.7311-0.77112 1.4559-0.85225 1.6107-0.08113 0.15481-0.14782 0.36285-0.1482 0.46231-6.76e-4 0.17584 0.73573 1.2265 0.85965 1.2265 0.03405 0 0.20971-0.10524 0.39037-0.23388zm1.7831-4.3014c-0.27355-0.21437-1.1319-1.3402-1.0958-1.4373 0.05517-0.14838 1.4322-1.1207 1.5808-1.1162 0.14658 4e-3 0.71755 0.74399 0.95161 1.2325 0.2262 0.47213 0.16927 0.79014-0.20386 1.1387-0.37603 0.35126-0.91534 0.43103-1.2327 0.18232zm82.482 0.92436c0.13657-0.26409 0.14827-0.38271 0.0495-0.50172-0.14365-0.1731-0.0587-0.39091 0.15251-0.39091 0.25076 0 0.97956-0.69164 1.2275-1.1649 0.34854-0.6653 0.34465-1.6722-9e-3 -2.2419-0.61858-0.99741-2.1361-1.3206-3.0936-0.65888-0.25886 0.1789-0.65752 0.50764-0.88593 0.73052-0.55986 0.54637-1.2012 0.97081-1.4668 0.97081-0.27251 0-0.87634-0.59016-0.87634-0.8565 0-0.10907 0.1062-0.41767 0.23599-0.68579 0.36786-0.75989 1.4864-1.3064 1.8762-0.91664 0.0991 0.0991 0.18553 0.0651 0.35819-0.14074 0.12517-0.14924 0.21586-0.34317 0.20153-0.43096-0.0218-0.13378-0.50185-0.48054-1.5666-1.1317-0.15179-0.0928-0.23776-0.048-0.4327 0.22578-0.2073 0.29114-0.22091 0.36872-0.092 0.52486 0.12693 0.15379 0.12606 0.19168-5e-3 0.2359-0.32358 0.1088-1.0682 0.88415-1.2658 1.3181-0.61649 1.3536 0.27653 2.8639 1.6966 2.8692 0.62707 2e-3 1.2535-0.30476 1.9777-0.96957 0.8579-0.78749 1.3583-1.0919 1.6675-1.0143 0.742 0.18623 1.1492 0.96347 0.86474 1.6504-0.35615 0.85981-1.573 1.3729-2.2741 0.95875-0.18153-0.10723-0.34334-0.17736-0.35958-0.15585-0.18891 0.25015-0.40523 0.6134-0.40523 0.68044 0 0.09 2.0264 1.4385 2.1644 1.4404 0.0448 6.8e-4 0.16203-0.15451 0.26039-0.34472zm-89.338-4.1043c0.37672-0.19481 0.38544-0.22774 0.16329-0.61635-0.1884-0.32956-0.21348-0.56294-0.0605-0.56294 0.05961 0 0.65492-0.29553 1.3229-0.65673 0.668-0.3612 1.6987-0.91502 2.2906-1.2307l1.076-0.57398 0.36124 0.65709 0.36124 0.6571-0.76173 0.42128c-0.41895 0.2317-0.78348 0.4398-0.81006 0.46244-0.02658 0.0226 0.03717 0.22045 0.14167 0.43958l0.18999 0.39841 1.0968-0.58166c0.60325-0.31991 1.161-0.63337 1.2393-0.69657 0.11112-0.0896 0.03874-0.30385-0.32842-0.97221-0.60844-1.1076-0.94244-1.7295-1.6697-3.1091-0.32643-0.61924-0.60936-1.1439-0.62875-1.166-0.01938-0.022-0.57008 0.23129-1.2238 0.56295-1.2306 0.62435-1.3319 0.7437-1.0152 1.1959l0.17434 0.2489 0.78733-0.39649c0.43303-0.21808 0.83513-0.36695 0.89356-0.33084 0.10273 0.0635 0.68613 1.2047 0.63938 1.2507-0.05829 0.0574-4.7715 2.5192-4.823 2.5192-0.02556 0-0.14077-0.17512-0.25604-0.38915l-0.20957-0.38915-0.35083 0.17829c-0.19296 0.0981-0.36975 0.19499-0.39288 0.2154-0.0678 0.0598 1.2716 2.6362 1.3706 2.6363 0.04952 4e-5 0.23951-0.0772 0.42221-0.17169zm42.215 12.03c-8.2864-0.84021-15.152-3.6894-21.167-8.7841-7.7617-6.5745-12.44-15.818-13.18-26.042-0.35909-4.9603 0.4275-10.632 2.1157-15.256 3.2449-8.887 9.4874-16.027 17.96-20.542 2.8505-1.5191 7.3053-3.0621 10.387-3.5976 2.6107-0.4537 3.403-0.51311 6.8679-0.51506 4.1994-0.0024 5.7258 0.16159 9.0071 0.96747 6.6663 1.6372 12.655 5.0275 17.568 9.9458 3.0534 3.0566 5.3649 6.307 7.21 10.139 1.9434 4.036 3.0105 7.7719 3.5536 12.441 0.15548 1.3366 0.19599 5.4793 0.0694 7.0931-0.40913 5.2144-2.19 10.858-4.9028 15.537-5.9948 10.34-16.676 17.271-28.538 18.516-1.4905 0.15652-5.7757 0.21666-6.9505 0.0975zm-61.777-43.92c0.26456-3.4307 1.56-9.5224 2.8667-13.48 2.4783-7.5063 6.3719-14.637 11.304-20.703 7.1203-8.7565 15.991-15.315 26.528-19.616 1.889-0.77086 6.3369-2.1865 8.5804-2.7309 5.3307-1.2935 10.06-1.8599 15.537-1.8606 4.0826-5.56e-4 7.793 0.32152 11.428 0.99197 0.80501 0.14849 1.6663 0.30263 1.914 0.34253 1.9776 0.3186 7.9033 2.0971 10.527 3.1595 2.8768 1.1649 5.8621 2.5899 7.8812 3.762 0.77405 0.44936 1.6354 0.94609 1.914 1.1039 0.57754 0.32698 2.9879 1.9092 3.9969 2.6236 2.7575 1.9525 5.1764 3.9812 8.1149 6.8059 1.8309 1.7599 4.5306 4.8544 6.2867 7.2057 2.6996 3.6148 4.4205 6.4161 6.4234 10.456 3.0369 6.1262 5.1274 12.918 6.0688 19.717 0.39658 2.8643 0.40417 3.0399 0.13136 3.0399-0.19882 0-0.23599-0.13141-0.36541-1.2923-0.32655-2.9291-0.95138-6.2207-1.8491-9.7414-0.36456-1.4297-1.5762-5.0077-2.4021-7.0931-1.7707-4.4714-4.8407-10.033-7.6129-13.792-0.29684-0.4025-0.70739-0.95973-0.91233-1.2383-2.3978-3.259-6.9297-7.9849-10.337-10.779-8.2452-6.7623-17.636-11.291-27.964-13.484-1.0446-0.22186-2.2352-0.44799-2.6458-0.50251-5.2791-0.70092-6.6713-0.80646-10.598-0.80347-8.9597 0.0068-17.286 1.682-25.22 5.0738-10.977 4.6928-20.342 12.204-27.381 21.959-6.2724 8.6926-10.287 18.962-11.619 29.723-0.21393 1.7276-0.26978 1.9744-0.45487 2.0101-0.19656 0.03786-0.20626-0.02081-0.14173-0.85762zm2.0486 0.76214c-0.15548-0.25157 0.3109-3.7794 0.84462-6.389 0.97207-4.7528 2.3335-8.9726 4.4227-13.708 0.67274-1.5248 2.128-4.3308 2.8387-5.4734 0.06218-0.09997 0.23438-0.40396 0.38267-0.67553 0.49665-0.90956 2.5754-4.0159 3.6233-5.4145 5.2892-7.0592 11.706-12.739 19.533-17.289 1.0914-0.63448 4.8263-2.4893 6.1291-3.0438 6.5348-2.7815 12.898-4.3578 20.153-4.9923 2.0871-0.18253 7.5658-0.18168 9.6826 0.0015 6.0719 0.52544 11.651 1.7417 16.719 3.6451 0.99078 0.37205 2.037 0.76504 2.325 0.87331 2.2084 0.83036 6.8112 3.1765 9.1591 4.6686 0.30962 0.19677 0.91727 0.58196 1.3503 0.85598 1.2537 0.7933 3.9452 2.7503 5.2924 3.8482 8.7788 7.1541 15.477 16.407 19.418 26.824 1.8029 4.7653 3.3464 11.226 3.6615 15.327l0.079 1.0283-1.9812 0.01797c-1.247 0.01131-1.9812-0.02341-1.9812-0.09371 0-0.8564-0.80618-5.5406-1.3538-7.866-1.5918-6.7598-4.6786-13.674-8.7525-19.607-0.40035-0.58298-0.77352-1.115-0.82925-1.1822-0.0557-0.06722-0.46322-0.60354-0.90554-1.1918-0.82916-1.1028-1.4445-1.8619-2.5484-3.1436-1.1276-1.3094-4.7638-4.8829-6.2143-6.1072-7.2181-6.0929-15.166-10.138-24.488-12.464-4.0084-1.0002-9.1631-1.5919-13.843-1.5891-4.9188 3e-3 -9.7955 0.59762-14.304 1.7442-9.2078 2.3414-17.523 6.7036-24.643 12.929-2.5959 2.2694-5.9997 5.921-7.9406 8.5186-0.5321 0.71212-1.026 1.3569-1.0975 1.4328-0.07151 0.07593-0.55738 0.78524-1.0797 1.5762-5.3063 8.0354-8.3565 16.169-9.6005 25.601-0.09194 0.69712-0.16717 1.3087-0.16717 1.3591 0 0.13552-3.8004 0.11474-3.8845-0.02123zm16.153-1.8856c-0.74393-0.37942-1.1221-1.0032-1.1221-1.8509 0-0.71478 0.2085-1.1929 0.71358-1.6364 1.0132-0.8896 2.5258-0.67805 3.2729 0.45775 0.27218 0.41379 0.3034 0.55452 0.26896 1.2124-0.05058 0.96627-0.43527 1.5912-1.1745 1.9081-0.70091 0.30045-1.2405 0.27538-1.9588-0.09098zm92.833 0.09682c-1.8455-0.85176-1.6403-3.5481 0.31001-4.0733 0.96092-0.25875 1.9054 0.12652 2.4621 1.0044 1.1257 1.7751-0.84597 3.9579-2.7721 3.0689zm-87.988-6.7835c-0.34058-0.19332-0.64146-0.37128-0.66862-0.39547-0.02716-0.02419 0.06382-0.277 0.20218-0.56178 0.13836-0.28478 0.23658-0.53075 0.21827-0.54659-0.12954-0.11203-4.3859-2.347-5.1845-2.7223l-0.53508-0.25147-0.23873 0.47346c-0.1313 0.2604-0.25475 0.49148-0.27433 0.51351-0.08526 0.09593-1.3952-0.61866-1.3976-0.76245-0.0027-0.15499 1.8269-3.7557 2.0485-4.0316 0.08455-0.10526 0.26088-0.05514 0.74672 0.21225 0.34982 0.19253 0.65778 0.36918 0.68436 0.39254 0.02658 0.02337-0.03759 0.22266-0.1426 0.44286-0.10501 0.22021-0.16477 0.44271-0.13279 0.49444 0.10519 0.1702 1.6515 0.92136 1.7852 0.86718 0.14635-0.05933 1.2752-2.1832 1.1951-2.2484-0.13329-0.1086-1.83-0.98325-1.8534-0.95546-0.01471 0.01743-0.1105 0.19635-0.21285 0.39761-0.10235 0.20125-0.23714 0.36591-0.29953 0.36591-0.17154 0-1.2057-0.5421-1.2879-0.67512-0.08885-0.14377 1.9731-4.1666 2.1349-4.1651 0.22442 2e-3 1.2988 0.68033 1.2948 0.81749-0.0022 0.07615-0.0764 0.26512-0.16489 0.41993-0.0885 0.15481-0.1627 0.3664-0.16489 0.4702-0.0028 0.13411 0.81032 0.60991 2.8098 1.6441l2.8137 1.4554 0.29282-0.49965c0.2591-0.44212 0.32692-0.49109 0.589-0.42531 0.29217 0.07333 0.29336 0.07121 0.0877-0.15604-0.20436-0.22581-0.20151-0.23832 0.14379-0.6316 0.19375-0.22067 0.35228-0.44843 0.35228-0.50612 0-0.09886-0.36755-0.67788-2.6771-4.2173l-0.95202-1.459-0.41145 0.48251-0.41145 0.48251-0.58873-0.47891c-0.3238-0.2634-0.58873-0.53956-0.58873-0.61368 0-0.07412 0.26599-0.43729 0.59109-0.80703 0.3251-0.36975 0.99628-1.1488 1.4915-1.7312 0.49523-0.5824 1.0779-1.2534 1.2948-1.491 0.2169-0.23766 0.43488-0.50365 0.4844-0.59109 0.14492-0.2559 0.33219-0.18916 0.91956 0.32769l0.55307 0.48668-0.3796 0.47237c-0.22985 0.28602-0.33821 0.51158-0.27468 0.57176 0.05771 0.05467 0.61157 0.31128 1.2308 0.57026 0.61924 0.25897 1.4552 0.61618 1.8577 0.7938 1.9286 0.85104 2.9472 1.2356 3.0707 1.1593 0.07445-0.04601 0.25578-0.22677 0.40297-0.4017 0.19117-0.2272 0.33097-0.29794 0.48941-0.24765 0.21218 0.06734 0.21378 0.05817 0.037-0.21164-0.17788-0.27147-0.17382-0.28979 0.10831-0.48912 0.82735-0.58452 0.93199-0.25854-1.0061-3.1344-0.95984-1.4242-1.7625-2.6374-1.7837-2.696-0.02119-0.05855-0.28345 0.05884-0.58281 0.26088-0.29936 0.20204-0.57471 0.32351-0.6119 0.26993-0.03718-0.05357-0.23227-0.33209-0.43352-0.61893-0.20125-0.28684-0.36591-0.5695-0.36591-0.62814 0-0.1153 3.8745-2.7238 4.0457-2.7238 0.11381 0 0.9862 0.6002 3.3291 2.2904 0.84491 0.60953 1.5605 1.0839 1.5903 1.0541 0.02976-0.02976-0.25457-1.3583-0.63183-2.9522-0.37726-1.594-0.67132-2.9094-0.65346-2.9232 0.09962-0.0769 4.0932-2.7097 4.1501-2.736 0.08235-0.03802 0.89261 1.163 0.89261 1.3231 0 0.0621-0.20683 0.24347-0.45962 0.40305-0.29376 0.18544-0.43736 0.34815-0.39793 0.45089 0.07786 0.20291 3.1975 4.894 3.3918 5.1004 0.12046 0.12795 0.2145 0.10498 0.57611-0.14074 0.23768-0.16151 0.48372-0.29302 0.54674-0.29226 0.06303 7.88e-4 0.21994 0.16543 0.3487 0.36591 0.12875 0.20049 0.3208 0.49809 0.42677 0.66134l0.19267 0.29682-2.035 1.3639c-1.1193 0.75013-2.0559 1.3639-2.0814 1.3639-0.07829 0-0.84657-1.198-0.84657-1.3201 0-0.06301 0.17698-0.2351 0.39329-0.38241 0.21631-0.14731 0.39364-0.31272 0.39406-0.36757 4.5e-4 -0.05485-0.64521-1.0578-1.4347-2.2288-0.78953-1.171-1.4862-2.2152-1.5481-2.3204-0.34219-0.58159-0.54456-0.81868-0.62778-0.73547-0.0514 0.0514 0.04923 0.67594 0.22361 1.3879 0.17438 0.71194 0.42481 1.7758 0.55651 2.364 0.1317 0.58828 0.43747 1.9016 0.67949 2.9185l0.44004 1.8489-0.24187 0.20491c-0.30842 0.26129-0.68852 0.36621-0.8875 0.245-0.08541-0.05203-1.6573-1.1712-3.4931-2.4871-1.8358-1.3159-3.3655-2.3925-3.3994-2.3925-0.03387 0-0.06159 0.06297-0.06159 0.13994 0 0.19372 3.4087 5.2604 3.5405 5.2626 0.0586 9.01e-4 0.2988-0.13151 0.5338-0.29436 0.50006-0.34654 0.56253-0.31649 1.0831 0.5209l0.35018 0.56333-1.6279 1.0822c-0.89534 0.59522-1.6279 1.1549-1.6279 1.2437 0 0.24057-2.892 3.6429-3.0931 3.6389-0.06363-0.0013-0.36747-0.22257-0.67521-0.49177l-0.55952-0.48946 0.36249-0.41286c0.19937-0.22707 0.36249-0.45286 0.36249-0.50175 0-0.09955-1.2307-0.69139-1.4377-0.69139-0.07299 0-0.48727 0.41636-0.92061 0.92523-0.78168 0.91793-0.78642 0.92748-0.60023 1.2103 0.10322 0.1568 0.25486 0.4191 0.33698 0.58287 0.29186 0.58207 0.42321 0.5953 0.85872 0.0865l0.40037-0.46775 0.62366 0.53281 0.62367 0.53281-0.21899 0.29704c-0.12044 0.16337-0.74249 0.89352-1.3823 1.6226-1.0312 1.1749-1.2741 1.5395-2.1387 3.2088-1.3266 2.5616-1.1371 2.3749-1.9787 1.9501-0.38298-0.19333-0.69453-0.38878-0.69234-0.43433 0.0022-0.04555 0.0764-0.20948 0.16489-0.36429 0.0885-0.15481 0.1627-0.3401 0.16489-0.41177 0.0037-0.11952-2.2299-1.3448-2.2943-1.2586-0.26114 0.3495-1.1809 2.2871-1.1144 2.3477 0.05022 0.04572 0.56452 0.32992 1.1429 0.63155l1.0516 0.54841 0.18692-0.23978c0.10281-0.13188 0.23917-0.32821 0.30303-0.43629 0.10717-0.18138 0.16737-0.16915 0.78208 0.15887 0.36628 0.19546 0.68647 0.37589 0.71154 0.40095 0.02506 0.02507-0.2952 0.69488-0.71169 1.4885-1.1658 2.2212-1.4517 2.7378-1.5151 2.7366-0.03215-5.63e-4 -0.33711-0.15923-0.67769-0.35254zm4.9485-15.415c0.26411-0.31322 0.46063-0.58906 0.43672-0.61297-0.17103-0.17103-2.4579-1.2061-2.4579-1.1125 0 0.19075 1.3392 2.2949 1.4606 2.2949 0.04421 0 0.29648-0.25627 0.56059-0.56949zm78.409 15.634c-0.046-0.07444-0.96823-1.8857-2.0494-4.025-1.8084-3.5783-2.2456-4.3162-3.3052-5.578-0.10427-0.12416-0.46951-0.57872-0.81163-1.0101-0.69983-0.88247-0.70093-0.87298 0.17096-1.4772l0.44523-0.30855 0.43049 0.42036 0.43048 0.42036 0.39151-0.54265c0.21534-0.29846 0.42784-0.6059 0.47224-0.6832 0.0911-0.15862-1.36-2.0549-1.5725-2.0549-0.15132 0-1.3003 0.45162-1.431 0.56246-0.0481 0.04085 0.0658 0.2673 0.25333 0.50321 0.18748 0.23592 0.34088 0.46834 0.34088 0.51648 0 0.12824-1.0229 1.0074-1.1721 1.0074-0.0699 0-0.32876-0.25774-0.57524-0.57277-0.24647-0.31502-0.84246-1.0623-1.3244-1.6607l-0.87629-1.0879 0.25706-0.20674c0.14138-0.1137 0.39594-0.32903 0.5657-0.4785 0.40725-0.3586 0.53782-0.34032 0.87353 0.12229 0.15481 0.21332 0.33681 0.38926 0.40445 0.39096 0.11044 0.0028 2.017-0.74953 2.5792-1.0177 0.12385-0.05908 0.95737-0.40355 1.8523-0.76548 0.89491-0.36193 1.6436-0.70741 1.6637-0.76772 0.0201-0.06031-0.12002-0.30669-0.31139-0.54749l-0.34794-0.43783 0.542-0.47778c0.2981-0.26278 0.61799-0.47774 0.71088-0.47769 0.0929 5e-5 0.44754 0.36075 0.78812 0.80156 0.34058 0.44081 0.6699 0.85681 0.73183 0.92444 0.20519 0.22411 2.3751 2.9353 2.4537 3.0658 0.045 0.07473-0.17643 0.34472-0.53166 0.6482l-0.60881 0.52013-0.45322-0.47632c-0.24926-0.26197-0.47368-0.45233-0.4987-0.42302-0.27934 0.32726-3.5701 5.4659-3.5701 5.5748 0 0.08083 0.13321 0.30528 0.29602 0.49877l0.29603 0.3518-0.26619 0.28334-0.26619 0.28334 0.3072-0.1168c0.28965-0.11012 0.3209-0.08963 0.54674 0.35864 0.13174 0.26149 0.28917 0.53745 0.34984 0.61324 0.0831 0.10383 0.80067-0.20984 2.9105-1.2723 1.5401-0.77554 2.8288-1.4563 2.8637-1.5128 0.0349-0.0565-0.0634-0.35308-0.21844-0.65907-0.3184-0.62832-0.3353-0.5974 0.58255-1.066l0.59015-0.30131 0.98079 1.9428c1.1413 2.2607 1.3854 2.7741 1.3854 2.9135 0 0.09736-1.1626 0.66182-1.3632 0.66182-0.0532 0-0.22506-0.25332-0.38195-0.56294-0.15689-0.30962-0.31014-0.56294-0.34052-0.56294-0.20373 0-5.683 2.8424-5.683 2.948 0 0.19814 1.1644 2.4562 1.2665 2.4562 0.0486 0 0.65122-0.28232 1.3392-0.62738 0.68803-0.34506 1.2882-0.58572 1.3338-0.5348 0.25718 0.28738 0.81163 1.5222 0.72273 1.6097-0.13044 0.12826-3.873 2.0295-3.995 2.0295-0.0501 0-0.12872-0.06091-0.17473-0.13536zm-2.4459-14.698c0.18486-0.23221 0.55336-0.74398 0.81888-1.1373 0.35834-0.53076 0.42891-0.69779 0.27381-0.64807-0.69811 0.22378-2.3457 0.96185-2.3806 1.0664-0.043 0.12914 0.7299 1.1411 0.87158 1.1411 0.0441 0 0.23144-0.18999 0.41631-0.42221zm-10.103-2.6494c-0.96952-0.83317-3.1045-2.6515-3.3513-2.8542l-0.29228-0.24011 0.53946-0.63145 0.53946-0.63145 0.43419 0.34892c0.2388 0.19191 0.49441 0.32884 0.56802 0.30431 0.0736-0.02454 1.0377-1.1066 2.1424-2.4047l2.0085-2.3601-0.45464-0.41772c-0.29599-0.27195-0.42428-0.4684-0.36763-0.56294 0.17909-0.2989 0.88348-1.1022 0.96648-1.1022 0.0474 0 0.48323 0.34199 0.96841 0.75998s1.1303 0.96263 1.4335 1.2103c1.4585 1.1913 2.3635 2.0805 2.7401 2.6923 0.37677 0.61213 0.40974 0.73443 0.40974 1.5199 0 0.72388-0.0458 0.93158-0.30037 1.3609-0.66799 1.1267-1.5774 1.7084-2.6872 1.7188-0.82293 0.0077-1.5949-0.3477-2.7149-1.2501-0.47366-0.38163-0.90709-0.69387-0.96318-0.69387-0.10307 0-0.90769 0.89332-1.088 1.208-0.0723 0.12617 0.028 0.27871 0.38624 0.58723 0.44712 0.3851 0.47167 0.43411 0.32286 0.64466-0.19818 0.28039-0.87428 1.0517-0.91759 1.0468-0.0174-2e-3 -0.16238-0.11595-0.32223-0.25332zm4.9552-3.736c0.57257-0.29609 0.90853-0.80672 0.90853-1.3809 0-0.47457-0.049-0.56413-0.62193-1.1371-0.37397-0.37397-0.66184-0.58036-0.72205-0.51766-0.0551 0.05735-0.48269 0.55938-0.95027 1.1156l-0.85015 1.0114 0.29605 0.30901c0.33077 0.34525 1.1083 0.76424 1.4184 0.76438 0.11144 5e-5 0.34606-0.07409 0.52138-0.16475zm-10.238-0.27026c-0.6502-0.35226-1.6888-0.91015-2.3081-1.2398-0.61924-0.3296-1.7915-0.95907-2.605-1.3988l-1.4792-0.79954 0.35327-0.70774c0.19429-0.38926 0.40392-0.70823 0.46585-0.70882 0.0619-5.62e-4 0.27847 0.10007 0.48122 0.22368 0.20275 0.12362 0.41744 0.22476 0.47709 0.22476 0.0597 0 0.29314-0.36732 0.51887-0.81627s0.88501-1.6881 1.4651-2.7536c0.58006-1.0655 1.0546-1.9891 1.0546-2.0525 0-0.06333-0.20266-0.21853-0.45036-0.3449-0.24769-0.12636-0.45035-0.2555-0.45035-0.28697 0-0.17296 0.69708-1.4019 0.79519-1.4019 0.064 0 0.93726 0.44973 1.9405 0.99941s2.3561 1.2793 3.0063 1.6215c2.0485 1.0779 2.6465 1.4163 2.6236 1.4848-0.11031 0.32916-1.4233 2.6497-1.4992 2.6497-0.0766 0-1.382-0.71402-1.5541-0.85008-0.0196-0.01553 0.0962-0.2885 0.25736-0.6066 0.16119-0.3181 0.2651-0.62364 0.2309-0.67897-0.0731-0.11818-2.3552-1.3553-2.4959-1.353-0.0527 9.01e-4 -0.31799 0.41457-0.58946 0.91933-0.57027 1.0603-0.633 0.91897 0.74691 1.6829 0.44895 0.24853 0.81627 0.48951 0.81627 0.53551 0 0.20378-0.58319 1.2665-0.72485 1.3209-0.0864 0.03315-0.55893-0.17152-1.0501-0.45482-0.49116-0.2833-0.94792-0.51509-1.015-0.51509-0.11741 0-1.3277 2.1211-1.2467 2.1848 0.0219 0.01717 0.44504 0.24914 0.94043 0.51549s1.0634 0.58133 1.2624 0.69995l0.36163 0.21568 0.33978-0.54134c0.18687-0.29773 0.35613-0.58735 0.37612-0.64359 0.0515-0.14477 1.6743 0.72807 1.6339 0.87883-0.0602 0.22499-1.383 2.6549-1.4406 2.6461-0.031-0.0047-0.58828-0.29678-1.2385-0.64904zm-41.708-3.1959c-0.02373-0.0774-0.12347-0.39042-0.22164-0.69559-0.09817-0.30517-0.17849-0.59508-0.17849-0.64424 0-0.04916 0.27089-0.16814 0.60198-0.26439l0.60198-0.175-0.14707-0.56695c-0.15307-0.59011-1.738-5.5339-1.796-5.6021-0.0182-0.02142-0.30109 0.03961-0.62865 0.13563-0.45788 0.13422-0.6155 0.14323-0.6818 0.03895-0.07885-0.12401-0.4274-1.2247-0.4274-1.3496 0-0.08072 0.38398-0.2162 3.3214-1.1719 2.4733-0.80471 2.78-0.87916 3.6213-0.87916 0.84152 0 0.96017 0.02883 1.4047 0.34125 1.0862 0.7634 1.5431 2.2909 1 3.343-0.13669 0.26482-0.35784 0.59994-0.49143 0.74472l-0.2429 0.26323 1.2132 1.1707 1.2132 1.1707 0.47558-0.16569c0.26157-0.09113 0.53479-0.16642 0.60714-0.16732 0.12169-0.0015 0.67265 1.4285 0.5837 1.515-0.02185 0.02124-0.66041 0.24077-1.419 0.48784l-1.3793 0.44923-1.7117-1.6772c-0.94142-0.92247-1.7864-1.6772-1.8778-1.6772-0.09135 0-0.3329 0.06032-0.53676 0.13404-0.42473 0.15358-0.42622 0.12164 0.07517 1.6111 0.32894 0.97718 0.34734 0.9895 1.1849 0.7933 0.33671-0.07888 0.34584-0.06929 0.54928 0.57654 0.11378 0.36122 0.22736 0.71031 0.2524 0.77576 0.02503 0.06545-0.24747 0.20908-0.60558 0.31918-0.3581 0.11009-1.4378 0.44919-2.3994 0.75356-0.96158 0.30436-1.7865 0.55339-1.8331 0.55339-0.04662 0-0.10419-0.06333-0.12792-0.14074zm2.6398-6.7938c1.4142-0.4912 1.85-1.2584 1.1722-2.0639-0.23619-0.28069-0.37707-0.3464-0.74265-0.3464-0.68114 0-1.668 0.31717-1.668 0.53608 0 0.24198 0.59219 2.0539 0.67059 2.0518 0.03368-9.01e-4 0.28923-0.08083 0.56788-0.17761zm30.097 5.7698c-0.50648-0.1334-0.94711-0.26942-0.97917-0.30225-0.0635-0.06504-1.3533-4.7037-1.8222-6.5538-0.16008-0.63154-0.3287-1.2155-0.3747-1.2977-0.0502-0.08966-0.21044 0.31442-0.40053 1.0098-0.17428 0.63762-0.48925 1.7821-0.69994 2.5433-0.21069 0.7612-0.35694 1.4263-0.325 1.478 0.0319 0.05168 0.28692 0.15158 0.56663 0.22202 0.27971 0.07043 0.50856 0.18734 0.50856 0.25979 0 0.29513-0.37478 1.4413-0.47129 1.4413-0.0571 0-0.56975-0.12712-1.1392-0.28248-0.56945-0.15536-1.4407-0.39145-1.9361-0.52464-0.49539-0.13319-0.9322-0.25836-0.97068-0.27816-0.0618-0.03179 0.29032-1.4807 0.38216-1.5725 0.0198-0.01983 0.29955 0.03346 0.6216 0.11842 0.39017 0.10292 0.60928 0.11609 0.65664 0.03945 0.0391-0.06326 0.16133-0.45129 0.27162-0.86229 0.11029-0.411 0.30923-1.1526 0.44208-1.648 0.52983-1.9757 0.90465-3.4458 0.90465-3.5481 0-0.05929-0.23231-0.16629-0.51624-0.23779-0.28393-0.07149-0.54106-0.19467-0.5714-0.27373-0.0303-0.07906 0.0324-0.45582 0.13943-0.83726 0.14862-0.52964 0.23707-0.6819 0.37437-0.64438 0.0989 0.02703 0.99042 0.26751 1.9812 0.5344 0.99078 0.2669 1.8116 0.49102 1.824 0.49807 0.0124 7e-3 0.32981 1.1257 0.70534 2.486 1.1439 4.1436 1.1705 4.2303 1.2516 4.0807 0.0429-0.07914 0.29002-0.92919 0.54915-1.889 0.25913-0.95982 0.49451-1.8283 0.52306-1.93 0.0401-0.14285-0.077-0.21584-0.51511-0.32093-0.31187-0.07482-0.58816-0.17022-0.61399-0.21201-0.054-0.08735 0.2975-1.4272 0.40174-1.5315 0.06-0.05997 0.75294 0.11366 3.671 0.91983 0.3251 0.08982 0.59109 0.19438 0.59109 0.23237 0 0.0904-0.36504 1.4235-0.40338 1.4731-0.0162 0.021-0.31621-0.02599-0.66664-0.10441-0.51819-0.11597-0.65388-0.11548-0.72686 0.0026-0.0493 0.07985-0.22611 0.68414-0.39282 1.3429-0.1667 0.65874-0.40049 1.5524-0.51952 1.9858-0.11904 0.43347-0.34645 1.2694-0.50536 1.8577-0.50267 1.8608-0.73315 2.5899-0.81523 2.5788-0.0438-0.0059-0.49407-0.11992-1.0006-0.25332zm-19.12-2.2135c-1.1672-0.14592-1.9399-0.52158-2.767-1.345-1.0607-1.0561-1.5587-2.2058-1.5649-3.6127-9e-3 -2.0389 1.2944-3.9648 3.1482-4.652 1.9855-0.73597 4.2919-0.5468 5.7751 0.47369 2.2569 1.5528 2.7403 5.1043 0.99025 7.2747-1.1336 1.4059-3.3399 2.1416-5.5817 1.8613zm1.978-1.8686c1.2986-0.38312 1.9961-1.6127 1.8741-3.3042-0.0995-1.3797-0.66065-2.3654-1.6077-2.8239-0.41305-0.19996-0.65601-0.23817-1.2875-0.20249-0.94546 0.05342-1.558 0.42566-2.0741 1.2605-0.28949 0.46824-0.34078 0.67522-0.38224 1.5424-0.0745 1.5587 0.34177 2.5605 1.338 3.2198 0.40538 0.26827 0.91585 0.44839 1.3513 0.47681 0.0971 0.0063 0.45178-0.06966 0.78812-0.16889z" fill="#2a2ea4"/>
  <path d="m102.67 144.65c-3.6879-0.21405-6.2658-0.58995-9.7389-1.4201-4.3668-1.0438-8.1195-2.4214-12.216-4.4843-2.6747-1.347-3.2445-1.6739-5.4934-3.1515-4.2724-2.8072-8.447-6.3966-11.393-9.7952-0.48301-0.55731-1.0275-1.1814-1.21-1.3869-1.0279-1.1574-3.1159-4.0783-4.8437-6.7758-0.78849-1.231-2.7018-4.8603-3.3536-6.3613-1.111-2.5584-2.0351-5.0996-2.7434-7.5434l-0.48946-1.6888-8.639-0.0289c-7.3659-0.0246-8.6301-0.0522-8.5783-0.18708 0.03339-0.087 0.19489-0.91001 0.35887-1.8289 0.16399-0.91885 0.45419-2.5066 0.6449-3.5284 0.4266-2.2855 0.45092-3.5681 0.10248-5.4043-0.13514-0.71212-0.29957-1.5988-0.3654-1.9703-0.06583-0.37154-0.26045-1.4526-0.43247-2.4023-0.21635-1.1945-0.27444-1.7415-0.18842-1.7745 0.06839-0.02621 7.0654-0.03446 15.549-0.01832l15.425 0.02934 0.07129 3.4903c0.07416 3.6308 0.19251 4.8687 0.73197 7.656 1.7724 9.1582 6.6965 17.505 13.89 23.544 4.6815 3.9307 10.361 6.8428 16.213 8.3135 5.4575 1.3715 11.459 1.587 17.15 0.6158 6.7944-1.1593 13.346-4.2014 18.991-8.8179 1.3841-1.132 4.5245-4.3174 5.6493-5.7303 3.8473-4.8325 6.4057-9.9496 7.8648-15.73 0.89088-3.5293 1.1294-5.4671 1.2025-9.7684 0.059-3.4739 0.0629-3.5204 0.29948-3.5774 0.13183-0.03175 7.1301-0.04384 15.552-0.02687 13.534 0.02727 15.309 0.05046 15.289 0.19973-0.0129 0.09288-0.30391 1.7525-0.64666 3.6879-0.83201 4.6983-0.82765 4.6238-0.41013 7.008 0.81825 4.6727 1.0161 5.7652 1.0817 5.9718 0.0685 0.21567-0.0675 0.21961-8.5633 0.248l-8.6329 0.0289-0.43711 1.5173c-2.4431 8.4808-6.646 16.086-12.476 22.577-0.27813 0.30962-1.3109 1.3635-2.295 2.3419-6.917 6.8771-15.41 11.759-24.99 14.366-5.6495 1.5372-11.829 2.1594-17.928 1.8054zm3.2821-3.9332h0.60225v-0.90071h-0.49461c-0.34715 0-0.51497-0.0531-0.56294-0.1781-0.0376-0.098-0.0683-1.1915-0.0683-2.43 0-1.7116 0.0327-2.2411 0.13621-2.2066 0.0749 0.025 0.38511 0.47251 0.68932 0.99453 0.30422 0.52203 1.0551 1.7978 1.6687 2.835l1.1156 1.8859h1.1544l-0.0783-3.2651-0.0783-3.2651h0.52147c0.43874 0 0.53149-0.0384 0.5847-0.24183 0.0596-0.22799 0.0717-0.23032 0.2102-0.0408 0.11199 0.15316 0.24175 0.1856 0.5453 0.13634 0.46325-0.0752 0.55509 0.0366 0.67515 0.82186 0.0426 0.27866 0.22466 1.292 0.40456 2.2518 0.46097 2.4594 0.46135 2.2947-6e-3 2.363-0.34111 0.0499-0.398 0.10303-0.42339 0.39541-0.0538 0.61996 5e-3 0.62892 1.8321 0.27823 1.9905-0.38209 2.4186-0.49877 3.0948-0.84341 1.1038-0.56261 1.57-1.4143 1.5738-2.8751 4e-3 -1.7085-0.64841-2.9908-1.8502-3.6342-0.68221-0.36526-2.1144-0.32265-4.3874 0.13055-1.4534 0.28978-2.0662 0.35745-3.2369 0.35745h-1.4442v0.44388c0 0.44172 2e-3 0.44405 0.4785 0.4785l0.47851 0.0346 0.0858 0.84442c0.0472 0.46443 0.0726 1.5031 0.0563 2.3081l-0.0296 1.4636-0.22517-0.37451c-0.12385-0.20598-0.52917-0.8765-0.90071-1.49-0.37155-0.61354-1.0025-1.6736-1.4021-2.3558l-0.72657-1.2402h-2.5438v0.90071h0.5c0.27501 0 0.52582 0.0418 0.55737 0.0928 0.0316 0.0511 0.0654 1.2797 0.0753 2.7303l0.018 2.6375-0.51904 0.0343-0.51904 0.0343v0.42541c0 0.23399 0.038 0.46485 0.0844 0.51304 0.0464 0.0482 0.45941 0.0566 0.9177 0.0188 0.45829-0.0379 1.1043-0.0688 1.4355-0.0688zm8.5457-1.7029c-0.0737-0.21086-0.96291-4.923-0.96291-5.1029 0-0.18858 1.0677-0.40004 2.0172-0.3995 1.319 7.8e-4 2.0727 0.73058 2.3601 2.2855 0.14051 0.76006 7e-3 1.6766-0.30741 2.105-0.42517 0.58006-1.3111 0.98954-2.5762 1.1908-0.35547 0.0565-0.49039 0.0365-0.53077-0.079zm-11.982 1.2526c0.0948-0.46338 0.10017-0.45543-0.37525-0.55209-0.34937-0.071-0.37972-0.11576-0.50671-0.74692-0.0743-0.36925-0.34029-1.6563-0.59109-2.8601-0.25081-1.2038-0.45601-2.2044-0.45601-2.2236 0-0.0192 0.19717-0.0349 0.43815-0.0349 0.37985 0 0.44809-0.0396 0.51288-0.29776 0.0411-0.16376 0.0339-0.33464-0.0159-0.37972-0.13569-0.12266-3.4949-0.59268-3.6317-0.50814-0.06499 0.0402-0.11816 0.21661-0.11816 0.3921 0 0.32423 0.16512 0.45575 0.57215 0.45575 0.25482 0 0.2704 0.0949 0.06524 0.39716-0.0829 0.12215-0.59791 1.0834-1.1445 2.1361-1.4393 2.7723-1.4405 2.7739-1.9459 2.7346-0.40749-0.0317-0.41892-0.022-0.45262 0.3834-0.03349 0.40299-0.02126 0.41796 0.39406 0.4825 0.23575 0.0366 0.70307 0.11546 1.0385 0.17518 0.33543 0.0597 0.77472 0.1086 0.97621 0.1086 0.31483 0 0.37668-0.0471 0.43992-0.33502 0.09586-0.43646 0.0045-0.56569-0.4001-0.56569-0.18212 0-0.33112-0.0562-0.33112-0.12498 0-0.0687 0.15905-0.42339 0.35345-0.78812 0.39265-0.73668 0.37539-0.7306 1.5606-0.5498 1.5899 0.24255 1.4266 0.14441 1.5652 0.94035 0.17615 1.0115 0.18096 0.99564-0.28926 0.95356-0.37514-0.0336-0.42118-6e-3 -0.50372 0.29811-0.05493 0.20263-0.04559 0.38064 0.02363 0.45036 0.11212 0.11292 2.2533 0.50233 2.5773 0.46874 0.0914-9e-3 0.20006-0.19139 0.2447-0.40967zm-3.7002-3.5962c-0.26203-0.0427-0.51057-0.1118-0.55231-0.15355-0.0877-0.0877 1.2066-2.7805 1.3364-2.7805 0.0475 0 0.0867 0.038 0.08711 0.0844 4.5e-4 0.0464 0.1014 0.66709 0.22443 1.3792 0.12302 0.71212 0.22402 1.3581 0.22443 1.4355 7.9e-4 0.15329-0.51069 0.16683-1.3201 0.0349zm-7.3898 0.12335c0.5667-1.6148 0.56196-1.7138-0.08347-1.7447-0.36011-0.0172-0.38402 8e-3 -0.61821 0.6576-0.13398 0.37154-0.3214 0.86164-0.41648 1.0891l-0.17287 0.41357-0.93821-0.34293c-0.51602-0.18862-0.97847-0.37953-1.0277-0.42423-0.04921-0.0447 0.32616-1.2315 0.83416-2.6372 0.70345-1.9466 0.96213-2.5411 1.0851-2.494 0.5507 0.21133 0.69836 0.19542 0.82804-0.0892 0.07162-0.15718 0.1024-0.35826 0.06842-0.44684-0.05179-0.13496-2.6658-1.1604-2.7192-1.0666-0.08866 0.15571-0.28851 0.68184-0.28851 0.75954 0 0.0542 0.17733 0.15709 0.39406 0.22861 0.21673 0.0715 0.39406 0.19841 0.39406 0.28196 0 0.19893-1.6958 4.8082-1.821 4.9494-0.06131 0.0692-0.22664 0.0593-0.45584-0.0272-0.41353-0.15609-0.50677-0.0964-0.60335 0.38657-0.06798 0.33992-0.05386 0.35381 0.58898 0.57966 0.65588 0.23044 1.6471 0.59579 3.3608 1.2388 0.49539 0.18586 0.93813 0.30284 0.98387 0.25996 0.04574-0.0429 0.31904-0.75017 0.60734-1.5717zm35.034-0.0222c0.6006-0.25029 1.2065-0.50275 1.3464-0.56103 0.23897-0.0996 0.24518-0.12833 0.10221-0.47381-0.15548-0.37572-0.25176-0.40421-0.86329-0.25547-0.27304 0.0664-0.31097-4e-3 -1.2666-2.3377-0.54184-1.3234-0.98516-2.4637-0.98516-2.534 0-0.12839 0.92233-0.58866 1.1796-0.58866 0.0757 0 0.27795 0.33005 0.44939 0.73344 0.17145 0.40338 0.35055 0.75743 0.39802 0.78677 0.10617 0.0656 0.78737-0.16296 0.78858-0.2646 2e-3 -0.17484-1.0507-2.5978-1.1135-2.5628-0.15433 0.0861-0.93209 0.42078-2.3213 0.99886-0.80501 0.33498-1.808 0.75263-2.2288 0.9281-0.42081 0.17548-0.78311 0.34846-0.8051 0.38441-0.022 0.036 0.18668 0.63142 0.46371 1.3233l0.50369 1.2579 0.33852-0.11801c0.18618-0.0649 0.36537-0.18799 0.39819-0.27352 0.0328-0.0855-0.0783-0.48008-0.24685-0.87675-0.16859-0.39668-0.27488-0.77245-0.2362-0.83504 0.11257-0.18214 1.201-0.50638 1.3155-0.39188 0.0559 0.0559 0.22299 0.40352 0.37121 0.77238 0.71331 1.7752 1.3407 3.2778 1.4857 3.5582 0.24525 0.47427 0.19633 0.64098-0.24181 0.82405-0.22119 0.0924-0.3747 0.21246-0.34115 0.26677 0.0336 0.0543 0.11195 0.23268 0.1742 0.39641 0.0623 0.16374 0.14236 0.2977 0.17801 0.2977 0.0357 0 0.55622-0.20478 1.1568-0.45505zm-41.523-1.7469c0.49695-0.94377 0.50236-0.96539 0.28229-1.1295-0.33171-0.24733-0.62526-0.15084-0.85627 0.28146-0.11285 0.21117-0.24977 0.42854-0.30428 0.48305-0.11156 0.11155-2.7246-1.2176-2.7246-1.3859 0-0.13489 0.7182-1.5518 0.92801-1.8308 0.15128-0.20119 0.20984-0.18418 1.3221 0.38402l1.1638 0.59453 0.2071-0.25575c0.1139-0.14067 0.2071-0.32281 0.2071-0.40477 0-0.082-0.50665-0.41398-1.1259-0.73781-0.61924-0.32383-1.1259-0.6528-1.1259-0.73104 0-0.11991 0.56384-1.2809 0.83576-1.7209 0.05809-0.094 0.48093 0.0744 1.4248 0.56746 0.73823 0.38562 1.3422 0.74389 1.3422 0.79615 0 0.0523-0.10133 0.29365-0.22518 0.53641s-0.22518 0.48792-0.22518 0.5448c0 0.14699 0.63762 0.39263 0.78413 0.30208 0.19063-0.11781 0.92592-1.6425 0.86662-1.797-0.02914-0.0759-0.80513-0.52534-1.7244-0.9987-0.9193-0.47336-2.0897-1.0906-2.6009-1.3716l-0.92947-0.51098-0.22591 0.36763c-0.22129 0.3601-0.22155 0.37108-0.01274 0.53651 0.11725 0.0929 0.29908 0.21955 0.40406 0.28147 0.16966 0.10007 0.09365 0.29412-0.68354 1.7451-0.48094 0.89789-1.0416 1.9745-1.2459 2.3925-0.20431 0.41798-0.42521 0.75997-0.49088 0.75997-0.06567 0-0.27359-0.0797-0.46204-0.17718-0.18845-0.0975-0.35682-0.16078-0.37415-0.14074-0.01733 0.02-0.1141 0.19889-0.21505 0.39742l-0.18354 0.36097 0.48873 0.28642c0.2688 0.15753 0.51811 0.28641 0.55401 0.28641 0.065 0 2.8853 1.4959 3.743 1.9853 0.2477 0.14133 0.50102 0.25881 0.56294 0.26106 0.06192 2e-3 0.34058-0.42889 0.61924-0.95809zm48.864-1.8607c0.88388-0.4711 1.538-1.128 1.8965-1.9046 0.23053-0.49943 0.28588-0.7935 0.28606-1.52 2.2e-4 -0.80693-0.0392-0.97458-0.37841-1.6101-0.79771-1.4946-1.8975-2.2158-3.381-2.2172-0.71699-6.8e-4 -0.95895 0.0535-1.6034 0.35877-2.2808 1.0804-2.9951 3.4747-1.6551 5.548 0.47939 0.74173 1.1696 1.2984 1.9972 1.6106 0.81837 0.30877 1.9614 0.20184 2.8382-0.26552zm-2.1318-0.68467c-0.97393-0.27971-1.8799-1.2816-2.1553-2.3835-0.28818-1.1531 0.29246-2.3275 1.4075-2.8467 1.066-0.49637 2.0624-0.30223 2.9436 0.57351 1.5688 1.5591 1.1072 4.0266-0.86273 4.6116-0.66696 0.19806-0.78652 0.20211-1.333 0.0452zm-55.402-2.6654c0.52635-0.33694 1.2103-0.7745 1.5199-0.97234 0.30962-0.19785 1.0884-0.70134 1.7305-1.1188 0.64217-0.41752 1.2411-0.78735 1.331-0.82185 0.08991-0.0345 0.30576 0.0425 0.47966 0.17104l0.31619 0.23376 0.22188-0.24675c0.41024-0.45623 0.39341-0.48832-0.65988-1.2585-0.56536-0.4134-1.0868-0.77424-1.1588-0.80186-0.07197-0.0276-0.24198 0.10008-0.37778 0.28376l-0.24692 0.33398 0.30793 0.24246 0.30793 0.24245-0.30596 0.24289c-0.50169 0.39828-3.9276 2.577-3.9761 2.5285-0.02459-0.0246 0.15554-0.72625 0.40029-1.5592 0.24475-0.83299 0.55491-1.9072 0.68923-2.3871s0.29962-0.87095 0.36731-0.86898c0.06769 2e-3 0.22142 0.078 0.34162 0.16888 0.29723 0.22482 0.32194 0.21642 0.56282-0.19135l0.21068-0.35666-0.28456-0.23443c-0.66268-0.54595-1.809-1.3334-1.96-1.3463-0.08975-8e-3 -0.24998 0.12913-0.35606 0.30407-0.18958 0.31266-0.1876 0.32232 0.11675 0.56718 0.17029 0.137 0.31046 0.29786 0.31148 0.35746 1e-3 0.0596-0.17367 0.71634-0.38821 1.4594-0.8894 3.0806-1.2985 4.5218-1.3712 4.8307-0.06605 0.28046-0.02274 0.37144 0.30361 0.63779 0.20936 0.17087 0.43215 0.27958 0.4951 0.24159 0.06295-0.038 0.54511-0.34476 1.0715-0.68171zm64.416-1.715c0.618-0.31528 1.4196-1.0712 1.6826-1.5868 0.1337-0.26209 0.21569-0.65389 0.21569-1.0308 0-0.75913-0.10706-0.92266-1.9671-3.0046-0.87313-0.9773-1.3861-1.6382-1.3363-1.7216 0.0445-0.0744 0.17261-0.20153 0.28476-0.28244 0.27477-0.19823 0.25665-0.38334-0.0673-0.6877l-0.27126-0.25482-1.0235 0.91769c-0.56293 0.50473-1.0235 0.9584-1.0235 1.0081 0 0.0497 0.10568 0.22479 0.23484 0.38899l0.23483 0.29854 0.34046-0.28648 0.34045-0.28648 0.24098 0.26741c0.68209 0.75689 2.4193 2.7567 2.6898 3.0964 0.18227 0.22889 0.30962 0.5275 0.30962 0.72597 0 0.70832-0.79503 1.523-1.5904 1.6296-0.41432 0.0556-0.47497 0.0233-1.0293-0.54713-1.1782-1.2125-2.7845-3.0506-2.7845-3.1864 0-0.0472 0.11281-0.17715 0.25068-0.28879 0.22729-0.18405 0.23632-0.22982 0.0968-0.49058-0.26149-0.4886-0.43935-0.45335-1.2319 0.24412-0.41143 0.36207-0.86206 0.75379-1.0014 0.87047-0.32374 0.27113-0.31877 0.39914 0.0282 0.72506l0.28147 0.26443 0.26058-0.24481c0.32754-0.3077 0.4249-0.30651 0.69342 9e-3 1.6927 1.9859 2.9701 3.3297 3.3807 3.5562 0.37175 0.2051 1.2596 0.15363 1.7608-0.10209zm-68.923-0.77564 0.23732-0.33329-0.22966-0.22966c-0.12631-0.12631-0.22966-0.27473-0.22966-0.32984 0-0.12715 1.2828-2.9218 1.9609-4.2721 0.5042-1.0039 0.72673-1.1878 0.89787-0.74183 0.09009 0.23477 0.33362 0.19577 0.60918-0.0976l0.24214-0.25775-1.3255-1.322-1.3255-1.322-0.26773 0.28499-0.26773 0.28499 0.26583 0.28296c0.17809 0.18957 0.22849 0.32031 0.15268 0.39611-0.06223 0.0622-0.76834 0.4103-1.5691 0.77348s-1.9487 0.89201-2.551 1.1752l-1.095 0.51484-0.34591-0.29106-0.34591-0.29106-0.27607 0.25935c-0.15184 0.14265-0.27607 0.29209-0.27607 0.3321 0 0.11584 1.8828 2.0272 1.9969 2.0272 0.05668 0 0.22205-0.12666 0.36749-0.28147l0.26443-0.28147-0.2448-0.26058c-0.13464-0.14332-0.2448-0.31373-0.2448-0.37869 0-0.11059 1.2028-0.7118 1.4241-0.7118 0.05563 0 0.50221 0.40343 0.9924 0.89651l0.89125 0.89651-0.36985 0.73603c-0.20342 0.40482-0.40783 0.73603-0.45424 0.73603-0.04641 0-0.17608-0.10133-0.28816-0.22518-0.26632-0.29428-0.41212-0.28402-0.72702 0.0512l-0.25962 0.27635 0.994 1.0184c0.5467 0.56013 1.0312 1.0184 1.0767 1.0184 0.04551 0 0.18954-0.14998 0.32007-0.33329zm-0.59143-4.8209c-0.35412-0.35785-0.64386-0.68562-0.64386-0.72837 0-0.10207 2.7129-1.4624 2.7809-1.3945 0.06835 0.0683-1.3109 2.7735-1.4141 2.7735-0.04346 0-0.36877-0.2928-0.72289-0.65066zm74.691 0.56491c0.4571-0.54254 0.89337-1.0658 0.96949-1.1627 0.11559-0.14724 0.0814-0.21843-0.20745-0.43199l-0.34585-0.25569-0.32202 0.30852-0.32203 0.30852-0.89948-0.71965c-0.49471-0.39581-0.90242-0.77615-0.90602-0.8452-0.0109-0.2093 0.44744-0.71871 0.649-0.72126 0.10387-1e-3 0.96341 0.18749 1.9101 0.41958l1.7212 0.42196 0.47426-0.55484c0.26085-0.30517 0.47427-0.6025 0.47427-0.66075 0-0.0582-0.14346-0.2127-0.31879-0.34323l-0.3188-0.23733-0.28253 0.32779-0.28253 0.3278-0.86233-0.20241c-0.47428-0.11132-1.101-0.27285-1.3926-0.35896l-0.53028-0.15656 0.0679-0.72757c0.0619-0.66267 0.0412-0.76609-0.23124-1.1593-0.59412-0.85731-1.5701-1.138-2.4306-0.699-0.43077 0.21976-0.62569 0.42376-2.3148 2.4226l-0.85589 1.0129 0.31637 0.25318c0.174 0.13925 0.34489 0.25343 0.37975 0.25374 0.0349 3.4e-4 0.20728-0.14965 0.38317-0.33324l0.3198-0.3338 0.57383 0.47164c0.31561 0.25939 0.67516 0.55979 0.79901 0.66753 0.12385 0.10775 0.78249 0.65695 1.4636 1.2204s1.2551 1.0712 1.2755 1.1283c0.0203 0.0571-0.0741 0.25974-0.20985 0.4504l-0.24684 0.34664 0.25763 0.27424c0.14169 0.15082 0.29279 0.27423 0.33576 0.27423 0.043 0 0.45213-0.44391 0.90923-0.98646zm-3.7011-4.093c-0.38676-0.31675-0.7032-0.6126-0.7032-0.65745 0-0.0448 0.29244-0.39368 0.64986-0.77517 0.54225-0.57876 0.71148-0.69362 1.022-0.69362 0.74844 0 1.2625 0.88648 0.88558 1.5273-0.25274 0.42973-0.90511 1.1748-1.0286 1.1748-0.0673 0-0.43881-0.25915-0.82558-0.57589zm-76.351 2.1434 0.32846-0.23389-0.22664-0.31829c-0.12465-0.17506-0.22664-0.37535-0.22664-0.4451 0-0.0697 0.19036-0.46724 0.42301-0.88333 0.23266-0.41609 0.52284-0.94651 0.64484-1.1787 0.24966-0.47518 0.34164-0.50391 0.73384-0.2292 0.46024 0.32236 1.3259 0.25772 1.8844-0.14073 0.93038-0.66365 1.0561-1.6797 0.34875-2.8191-0.48465-0.78071-2.0461-2.9644-2.1209-2.9659-0.03096-6.8e-4 -0.20271 0.11856-0.38167 0.2649l-0.32537 0.26607 0.24977 0.35076c0.13737 0.19292 0.23312 0.39761 0.21278 0.45487-0.03517 0.099-3.3387 2.5236-4.0602 2.98l-0.34202 0.21633-0.30362-0.37201c-0.30127-0.36913-0.30595-0.37048-0.60394-0.17523-0.16518 0.10823-0.30032 0.24495-0.30032 0.30382 0 0.21929 0.38603 0.79206 1.645 2.4407 0.048 0.0628 0.71937-0.4388 0.71937-0.53752 0-0.0482-0.10133-0.20453-0.22518-0.34733-0.12385-0.14279-0.22351-0.28988-0.22147-0.32684 0.0033-0.0606 1.5502-1.218 1.8748-1.4028 0.0779-0.0443 0.2571 0.0862 0.43074 0.31389l0.29734 0.38983-0.70474 1.3292c-0.38761 0.7311-0.77112 1.4559-0.85225 1.6107-0.08113 0.15481-0.14782 0.36285-0.1482 0.46231-6.76e-4 0.17584 0.73573 1.2265 0.85965 1.2265 0.03405 0 0.20971-0.10524 0.39037-0.23388zm1.7831-4.3014c-0.27355-0.21437-1.1319-1.3402-1.0958-1.4373 0.05517-0.14838 1.4322-1.1207 1.5808-1.1162 0.14658 4e-3 0.71755 0.74399 0.95161 1.2325 0.2262 0.47213 0.16927 0.79014-0.20386 1.1387-0.37603 0.35126-0.91534 0.43103-1.2327 0.18232zm82.482 0.92436c0.13657-0.26409 0.14827-0.38271 0.0495-0.50172-0.14365-0.1731-0.0587-0.39091 0.15251-0.39091 0.25076 0 0.97956-0.69164 1.2275-1.1649 0.34854-0.6653 0.34465-1.6722-9e-3 -2.2419-0.61858-0.99741-2.1361-1.3206-3.0936-0.65888-0.25886 0.1789-0.65752 0.50764-0.88593 0.73052-0.55986 0.54637-1.2012 0.97081-1.4668 0.97081-0.27251 0-0.87634-0.59016-0.87634-0.8565 0-0.10907 0.1062-0.41767 0.23599-0.68579 0.36786-0.75989 1.4864-1.3064 1.8762-0.91664 0.0991 0.0991 0.18553 0.0651 0.35819-0.14074 0.12517-0.14924 0.21586-0.34317 0.20153-0.43096-0.0218-0.13378-0.50185-0.48054-1.5666-1.1317-0.15179-0.0928-0.23776-0.048-0.4327 0.22578-0.2073 0.29114-0.22091 0.36872-0.092 0.52486 0.12693 0.15379 0.12606 0.19168-5e-3 0.2359-0.32358 0.1088-1.0682 0.88415-1.2658 1.3181-0.61649 1.3536 0.27653 2.8639 1.6966 2.8692 0.62707 2e-3 1.2535-0.30476 1.9777-0.96957 0.8579-0.78749 1.3583-1.0919 1.6675-1.0143 0.742 0.18623 1.1492 0.96347 0.86474 1.6504-0.35615 0.85981-1.573 1.3729-2.2741 0.95875-0.18153-0.10723-0.34334-0.17736-0.35958-0.15585-0.18891 0.25015-0.40523 0.6134-0.40523 0.68044 0 0.09 2.0264 1.4385 2.1644 1.4404 0.0448 6.8e-4 0.16203-0.15451 0.26039-0.34472zm-89.338-4.1043c0.37672-0.19481 0.38544-0.22774 0.16329-0.61635-0.18431-0.32242-0.21414-0.56294-0.06982-0.56294 0.05448 0 1.1309-0.55209 2.3921-1.2269l2.293-1.2269 0.30813 0.52318c0.16947 0.28776 0.30893 0.59919 0.3099 0.69207 1e-3 0.0933-0.3257 0.34529-0.72976 0.56295-0.40234 0.21673-0.73159 0.43457-0.73168 0.48409-8.3e-5 0.0495 0.07801 0.24118 0.17354 0.42591l0.17369 0.33588 1.0929-0.57959c0.60111-0.31878 1.1571-0.63131 1.2355-0.69451 0.11112-0.0896 0.03874-0.30385-0.32842-0.97221-0.60844-1.1076-0.94244-1.7295-1.6697-3.1091-0.32643-0.61924-0.60936-1.1439-0.62875-1.166-0.01938-0.022-0.57008 0.23129-1.2238 0.56295-1.2306 0.62435-1.3319 0.7437-1.0152 1.1959l0.17434 0.2489 0.78733-0.39649c0.43303-0.21808 0.84009-0.36389 0.90458-0.32404 0.167 0.10322 0.5677 1.0749 0.50772 1.2312-0.0276 0.0719-0.3716 0.29505-0.76444 0.49583s-1.4291 0.74103-2.3029 1.2005c-0.87374 0.45952-1.6095 0.83549-1.6351 0.83549-0.02556 0-0.14077-0.17512-0.25604-0.38915l-0.20957-0.38915-0.35083 0.17829c-0.19296 0.0981-0.36975 0.19499-0.39288 0.2154-0.0678 0.0598 1.2716 2.6362 1.3706 2.6363 0.04952 4e-5 0.23951-0.0772 0.42221-0.17169zm64.511-23.331c-0.71471-1.4905-0.74621-1.5541-1.0464-2.111-0.10012-0.18577-0.4432-0.89508-0.7624-1.5762-1.081-2.3067-1.268-2.7001-1.8894-3.9735-0.3412-0.69924-0.66275-1.2975-0.71455-1.3296-0.0518-0.03202-0.0942-0.12684-0.0942-0.21072 0-0.08388-0.46188-1.1069-1.0264-2.2733-0.56452-1.1664-1.2671-2.6274-1.5613-3.2467-1.7393-3.6607-2.9555-6.0419-3.0413-5.9542-0.0535 0.05475-0.17615 0.60619-0.27249 1.2254-0.0964 0.61924-0.27812 1.7592-0.40395 2.5332-0.25721 1.5823-0.44298 2.7795-0.52848 3.4058-0.0317 0.23221-0.0963 0.42221-0.14358 0.42221-0.0878 0-0.16649-0.39448-0.33679-1.6888-0.053-0.4025-0.20127-1.4411-0.32957-2.3081-0.12829-0.86693-0.3633-2.5604-0.52224-3.7632-0.15893-1.2028-0.30675-2.2161-0.32849-2.2518-0.0217-0.03567-0.096-0.53139-0.16515-1.1016-0.13266-1.0946-0.2047-1.3839-0.34467-1.3839-0.0472 0-0.11631 0.16466-0.15358 0.36591-0.0373 0.20125-0.17415 0.7459-0.30416 1.2103-0.25501 0.91092-0.64569 2.3819-1.0615 3.9969-0.14349 0.55732-0.34552 1.3173-0.44893 1.6888-0.10342 0.37154-0.33969 1.2835-0.52505 2.0266-0.18535 0.74309-0.38097 1.4524-0.4347 1.5762-0.0537 0.12385-0.12925 0.37717-0.16784 0.56294-0.0386 0.18577-0.0969 0.46443-0.12955 0.61924-0.0327 0.15481-0.10094 0.3828-0.15172 0.50665-0.0508 0.12385-0.15359 0.52917-0.22848 0.90071-0.0749 0.37154-0.17883 0.77686-0.23098 0.90071-0.0522 0.12385-0.25567 0.88382-0.45225 1.6888-0.44137 1.8074-0.8558 3.2749-0.99523 3.524-0.11587 0.20706-0.13222 0.16475-0.33937-0.87818-0.0554-0.27866-0.23568-1.1653-0.40075-1.9703-0.16506-0.80501-0.36786-1.8183-0.45067-2.2518-0.38049-1.9919-0.64286-3.2972-0.73544-3.6591-0.0554-0.21673-0.16079-0.74872-0.23411-1.1822-0.27515-1.6266-0.49975-2.1176-0.6824-1.4918-0.0407 0.13933-0.32601 1.0386-0.6341 1.9985-0.30809 0.95982-0.77414 2.4291-1.0357 3.2651s-0.5421 1.6973-0.62351 1.914c-0.0814 0.21673-0.28027 0.82471-0.44191 1.3511-0.35948 1.1706-1.0413 3.3122-1.2008 3.7717-0.06448 0.18577-0.19667 0.61642-0.29375 0.957-0.09708 0.34058-0.26644 0.71517-0.37635 0.83243-0.19602 0.20912-0.21776 0.20875-1.1376-0.01932-1.9273-0.47788-2.4072-0.60571-2.6265-0.69969-0.12385-0.05306-0.35184-0.12356-0.50665-0.15667-0.56825-0.12153-2.7602-0.68146-4.143-1.0583-0.78954-0.21518-1.0174-0.39735-4.0011-3.1986-1.9367-1.8183-2.0215-1.8756-2.2637-1.5298-0.09655 0.13784-0.17554 0.30834-0.17554 0.37887 0 0.21142-0.90388 2.0734-1.0065 2.0734-0.13286 0-0.21642-0.38994-0.2916-1.3607-0.08145-1.0517-0.28106-2.2422-0.37596-2.2422-0.03978 0-0.20858 0.16466-0.37511 0.36591-0.29266 0.35368-0.48796 0.60523-1.3285 1.7112-0.21673 0.28518-0.83738 1.0808-1.3792 1.768-0.54183 0.6872-0.98515 1.2843-0.98515 1.3269 0 0.04257-0.15226 0.18998-0.33837 0.32757-0.31381 0.23201-1.1673 0.4872-3.4334 1.0265-0.92826 0.22093-1.1952 0.29031-3.4903 0.90702-1.4783 0.39724-2.3081 0.5288-2.3081 0.36595 0-0.05769 0.26599-0.36158 0.59109-0.67531 0.3251-0.31373 3.5239-3.5142 7.1085-7.1121 3.5846-3.5979 6.5992-6.5414 6.699-6.5409 0.09988 4.5e-4 0.28964 0.16508 0.4217 0.36591 0.29084 0.44232 1.2981 2.1587 1.7671 3.011 0.18738 0.34058 0.62579 1.1006 0.97424 1.6888 0.34844 0.58828 0.87703 1.4848 1.1746 1.9922 0.8449 1.4406 0.8215 1.4324 1.6645 0.57715 0.39028-0.39596 1.54-1.5034 2.5549-2.4609 1.0149-0.95753 2.0029-1.899 2.1955-2.0922 0.19259-0.19316 1.1355-1.0775 2.0953-1.9652 0.95982-0.88772 1.9038-1.7683 2.0978-1.9569 0.50986-0.49568 1.9481-1.8651 4.3213-4.1146 1.1433-1.0837 2.5606-2.4296 3.1496-2.991 0.589-0.56137 1.4992-1.4227 2.0227-1.914 0.52349-0.49134 1.5273-1.4507 2.2307-2.1318 0.72594-0.70299 1.3902-1.2532 1.5363-1.2725 0.21287-0.02811 0.38051 0.14727 0.96864 1.0133 0.99078 1.4589 1.0536 1.5534 1.3691 2.0606 0.15413 0.2477 0.66173 1.033 1.128 1.7451 0.74097 1.1317 1.1859 1.8206 1.6083 2.4902 0.0632 0.10018 0.19646 0.30284 0.29615 0.45036 0.0997 0.14752 0.45435 0.69657 0.78812 1.2201 1.2758 2.0012 1.7803 2.7851 2.1997 3.4181 0.60362 0.91092 0.79282 1.2096 1.0052 1.5867 0.10136 0.17996 0.23244 0.38262 0.29129 0.45036 0.0589 0.06774 0.58257 0.8578 1.1638 1.7557 0.58124 0.8979 1.1103 1.6937 1.1758 1.7685 0.0654 0.07479 0.11899 0.16186 0.11899 0.1935 0 0.03163 0.1914 0.35043 0.42533 0.70843s0.47459 0.73126 0.5348 0.82946c0.52898 0.86277 1.2117 1.8114 1.3388 1.8601 0.0857 0.03287 0.75606-0.32976 1.4898-0.80583 1.8013-1.1688 1.8527-1.2014 2.2045-1.3984 0.16915-0.09472 0.8278-0.5208 1.4636-0.94684 0.63586-0.42604 1.3334-0.88785 1.5502-1.0262 0.77037-0.4919 2.1556-1.3535 2.3701-1.4742 0.11982-0.06742 0.31087-0.20675 0.42454-0.30962s0.32964-0.18704 0.47993-0.18704c0.21762 0 0.32472 0.11215 0.52593 0.55076 0.13897 0.30292 0.25267 0.60555 0.25267 0.67252 0 0.06697 0.0975 0.33844 0.21664 0.60328 0.43913 0.97606 0.68407 1.5501 0.68407 1.6031 0 0.02994 0.12189 0.32182 0.27086 0.64861 0.14898 0.32679 0.60771 1.4048 1.0194 2.3956s0.79348 1.9028 0.84841 2.0266c0.13037 0.29396 0.62146 1.4598 1.3517 3.2088 0.32317 0.77405 0.68037 1.61 0.79377 1.8577 0.1134 0.2477 0.30506 0.70368 0.42592 1.0133 0.12085 0.30962 0.35182 0.85102 0.51326 1.2031 0.33656 0.734 0.34348 0.7686 0.1528 0.76321-0.0774-0.0022-0.54606-0.56189-1.0414-1.2438-0.49539-0.68189-1.0527-1.4335-1.2385-1.6702s-0.41376-0.54307-0.50665-0.68076c-0.0929-0.1377-0.51087-0.70394-0.92885-1.2583-0.41799-0.55438-0.75998-1.031-0.75998-1.0591 0-0.02814-0.40532-0.58619-0.90071-1.2401s-0.90071-1.2365-0.90071-1.2947c0-0.05818-0.038-0.10613-0.0844-0.10655-0.0464-4.51e-4 -0.21111-0.19042-0.36592-0.42221-0.1548-0.23179-0.39673-0.5481-0.5376-0.70291-0.32443-0.35652-0.39576-0.25691-0.64052 0.89438-0.42857 2.0159-0.53564 2.3036-0.69026 1.8547-0.26147-0.75914-1.3444-2.9743-1.4541-2.9743-0.14188 0-0.5055 0.35623-0.5055 0.49523 0 0.04589-0.152 0.30435-0.33777 0.57436-0.18577 0.27001-0.33777 0.52032-0.33777 0.55624s-0.17733 0.3176-0.39406 0.62594-0.39406 0.58771-0.39406 0.6208-0.16466 0.30578-0.36591 0.60599c-0.20126 0.3002-0.46667 0.71697-0.5898 0.92614-0.12314 0.20918-0.33099 0.55765-0.46188 0.77438-0.1309 0.21673-0.60013 0.99387-1.0427 1.727-0.44261 0.7331-0.805 1.3664-0.8053 1.4074-3.4e-4 0.04095-0.12765 0.22645-0.28298 0.41222-0.15533 0.18577-0.35245 0.49596-0.43805 0.68931-0.19596 0.44266-0.62615 0.94323-0.8106 0.94323-0.0773 0-0.45026-0.64598-0.82884-1.4355zm-65.872-9.6826c-0.74393-0.37942-1.1221-1.0032-1.1221-1.8509 0-0.71478 0.2085-1.1929 0.71358-1.6364 1.0132-0.8896 2.5258-0.67805 3.2729 0.45775 0.27218 0.41379 0.3034 0.55452 0.26896 1.2124-0.05058 0.96627-0.43527 1.5912-1.1745 1.9081-0.70091 0.30045-1.2405 0.27538-1.9588-0.09098zm92.833 0.09682c-1.8455-0.85176-1.6403-3.5481 0.31001-4.0733 0.96092-0.25875 1.9054 0.12652 2.4621 1.0044 1.1257 1.7751-0.84597 3.9579-2.7721 3.0689zm-87.988-6.7835c-0.34058-0.19332-0.64146-0.37128-0.66862-0.39547-0.02716-0.02419 0.06382-0.277 0.20218-0.56178 0.13836-0.28478 0.23658-0.53075 0.21827-0.54659-0.12954-0.11203-4.3859-2.347-5.1845-2.7223l-0.53508-0.25147-0.23873 0.47346c-0.1313 0.2604-0.25475 0.49148-0.27433 0.51351-0.08526 0.09593-1.3952-0.61866-1.3976-0.76245-0.0027-0.15499 1.8269-3.7557 2.0485-4.0316 0.08455-0.10526 0.26088-0.05514 0.74672 0.21225 0.34982 0.19253 0.65778 0.36918 0.68436 0.39254 0.02658 0.02337-0.03759 0.22266-0.1426 0.44286-0.10501 0.22021-0.16477 0.44271-0.13279 0.49444 0.10519 0.1702 1.6515 0.92136 1.7852 0.86718 0.14635-0.05933 1.2752-2.1832 1.1951-2.2484-0.13329-0.1086-1.83-0.98325-1.8534-0.95546-0.01471 0.01743-0.1105 0.19635-0.21285 0.39761-0.10235 0.20125-0.23714 0.36591-0.29953 0.36591-0.17154 0-1.2057-0.5421-1.2879-0.67512-0.08885-0.14377 1.9731-4.1666 2.1349-4.1651 0.22442 2e-3 1.2988 0.68033 1.2948 0.81749-0.0022 0.07615-0.0764 0.26512-0.16489 0.41993-0.0885 0.15481-0.1627 0.3664-0.16489 0.4702-0.0028 0.13411 0.81032 0.60991 2.8098 1.6441l2.8137 1.4554 0.29282-0.49965c0.2591-0.44212 0.32692-0.49109 0.589-0.42531 0.29217 0.07333 0.29336 0.07121 0.0877-0.15604-0.20436-0.22581-0.20151-0.23832 0.14379-0.6316 0.19375-0.22067 0.35228-0.44843 0.35228-0.50612 0-0.09886-0.36755-0.67788-2.6771-4.2173l-0.95202-1.459-0.41145 0.48251-0.41145 0.48251-0.58873-0.47891c-0.3238-0.2634-0.58873-0.53956-0.58873-0.61368 0-0.07412 0.26599-0.43729 0.59109-0.80703 0.3251-0.36975 0.99628-1.1488 1.4915-1.7312 0.49523-0.5824 1.0779-1.2534 1.2948-1.491 0.2169-0.23766 0.43488-0.50365 0.4844-0.59109 0.14492-0.2559 0.33219-0.18916 0.91956 0.32769l0.55307 0.48668-0.3796 0.47237c-0.22985 0.28602-0.33821 0.51158-0.27468 0.57176 0.05771 0.05467 0.61157 0.31128 1.2308 0.57026 0.61924 0.25897 1.4552 0.61618 1.8577 0.7938 1.9286 0.85104 2.9472 1.2356 3.0707 1.1593 0.07445-0.04601 0.25578-0.22677 0.40297-0.4017 0.19117-0.2272 0.33097-0.29794 0.48941-0.24765 0.21218 0.06734 0.21378 0.05817 0.037-0.21164-0.17788-0.27147-0.17382-0.28979 0.10831-0.48912 0.82735-0.58452 0.93199-0.25854-1.0061-3.1344-0.95984-1.4242-1.7625-2.6374-1.7837-2.696-0.02119-0.05855-0.28345 0.05884-0.58281 0.26088-0.29936 0.20204-0.57471 0.32351-0.6119 0.26993-0.03718-0.05357-0.23227-0.33209-0.43352-0.61893-0.20125-0.28684-0.36591-0.5695-0.36591-0.62814 0-0.1153 3.8745-2.7238 4.0457-2.7238 0.11381 0 0.9862 0.6002 3.3291 2.2904 0.84491 0.60953 1.5605 1.0839 1.5903 1.0541 0.02976-0.02976-0.25457-1.3583-0.63183-2.9522-0.37726-1.594-0.67132-2.9094-0.65346-2.9232 0.09962-0.0769 4.0932-2.7097 4.1501-2.736 0.08235-0.03802 0.89261 1.163 0.89261 1.3231 0 0.0621-0.20683 0.24347-0.45962 0.40305-0.29376 0.18544-0.43736 0.34815-0.39793 0.45089 0.07786 0.20291 3.1975 4.894 3.3918 5.1004 0.12046 0.12795 0.2145 0.10498 0.57611-0.14074 0.23768-0.16151 0.48372-0.29302 0.54674-0.29226 0.06303 7.88e-4 0.21994 0.16543 0.3487 0.36591 0.12875 0.20049 0.3211 0.49855 0.42744 0.66236l0.19334 0.29784-1.956 1.3065c-1.0758 0.7186-2.0322 1.3065-2.1255 1.3065-0.16372 0-0.88292-0.98689-0.88292-1.2115 0-0.06077 0.17698-0.23102 0.39329-0.37833 0.21631-0.14731 0.39364-0.31272 0.39406-0.36757 4.5e-4 -0.05485-0.64521-1.0578-1.4347-2.2288-0.78953-1.171-1.4862-2.2152-1.5481-2.3204-0.34219-0.58159-0.54456-0.81868-0.62778-0.73547-0.0514 0.0514 0.04923 0.67594 0.22361 1.3879 0.17438 0.71194 0.42481 1.7758 0.55651 2.364 0.1317 0.58828 0.43747 1.9016 0.67949 2.9185l0.44004 1.8489-0.24187 0.20491c-0.30842 0.26129-0.68852 0.36621-0.8875 0.245-0.08541-0.05203-1.6573-1.1712-3.4931-2.4871-1.8358-1.3159-3.3655-2.3925-3.3994-2.3925-0.03387 0-0.06159 0.06297-0.06159 0.13994 0 0.19372 3.4087 5.2604 3.5405 5.2626 0.0586 9.01e-4 0.2988-0.13151 0.5338-0.29436 0.50006-0.34654 0.56253-0.31649 1.0831 0.5209l0.35018 0.56333-1.6279 1.0822c-0.89534 0.59522-1.6279 1.1549-1.6279 1.2437 0 0.24057-2.892 3.6429-3.0931 3.6389-0.06363-0.0013-0.36747-0.22257-0.67521-0.49177l-0.55952-0.48946 0.36249-0.41286c0.19937-0.22707 0.36249-0.45286 0.36249-0.50175 0-0.09955-1.2307-0.69139-1.4377-0.69139-0.07299 0-0.48727 0.41636-0.92061 0.92523-0.78168 0.91793-0.78642 0.92748-0.60023 1.2103 0.10322 0.1568 0.25486 0.4191 0.33698 0.58287 0.29186 0.58207 0.42321 0.5953 0.85872 0.0865l0.40037-0.46775 0.62366 0.53281 0.62367 0.53281-0.21899 0.29704c-0.12044 0.16337-0.74249 0.89352-1.3823 1.6226-1.0312 1.1749-1.2741 1.5395-2.1387 3.2088-1.3266 2.5616-1.1371 2.3749-1.9787 1.9501-0.38298-0.19333-0.69453-0.38878-0.69234-0.43433 0.0022-0.04555 0.0764-0.20948 0.16489-0.36429 0.0885-0.15481 0.1627-0.3401 0.16489-0.41177 0.0037-0.11952-2.2299-1.3448-2.2943-1.2586-0.26114 0.3495-1.1809 2.2871-1.1144 2.3477 0.05022 0.04572 0.56452 0.32992 1.1429 0.63155l1.0516 0.54841 0.18692-0.23978c0.10281-0.13188 0.23917-0.32821 0.30303-0.43629 0.10717-0.18138 0.16737-0.16915 0.78208 0.15887 0.36628 0.19546 0.68647 0.37589 0.71154 0.40095 0.02506 0.02507-0.2952 0.69488-0.71169 1.4885-1.1658 2.2212-1.4517 2.7378-1.5151 2.7366-0.03215-5.63e-4 -0.33711-0.15923-0.67769-0.35254zm4.9485-15.415c0.26411-0.31322 0.46063-0.58906 0.43672-0.61297-0.17103-0.17103-2.4579-1.2061-2.4579-1.1125 0 0.19075 1.3392 2.2949 1.4606 2.2949 0.04421 0 0.29648-0.25627 0.56059-0.56949zm78.409 15.634c-0.046-0.07444-0.96823-1.8857-2.0494-4.025-1.8084-3.5783-2.2456-4.3162-3.3052-5.578-0.10427-0.12416-0.46951-0.57872-0.81163-1.0101-0.69983-0.88247-0.70093-0.87298 0.17096-1.4772l0.44523-0.30855 0.43049 0.42036 0.43048 0.42036 0.39151-0.54265c0.21534-0.29846 0.42784-0.6059 0.47224-0.6832 0.0911-0.15862-1.36-2.0549-1.5725-2.0549-0.15132 0-1.3003 0.45162-1.431 0.56246-0.0481 0.04085 0.0658 0.2673 0.25333 0.50321 0.18748 0.23592 0.34088 0.46834 0.34088 0.51648 0 0.12824-1.0229 1.0074-1.1721 1.0074-0.0699 0-0.32876-0.25774-0.57524-0.57277-0.24647-0.31502-0.84246-1.0623-1.3244-1.6607l-0.87629-1.0879 0.25706-0.20674c0.14138-0.1137 0.39594-0.32903 0.5657-0.4785 0.40725-0.3586 0.53782-0.34032 0.87353 0.12229 0.15481 0.21332 0.33681 0.38926 0.40445 0.39096 0.11044 0.0028 2.017-0.74953 2.5792-1.0177 0.12385-0.05908 0.95737-0.40355 1.8523-0.76548 0.89491-0.36193 1.6436-0.70741 1.6637-0.76772 0.0201-0.06031-0.12002-0.30669-0.31139-0.54749l-0.34794-0.43783 0.542-0.47778c0.2981-0.26278 0.61799-0.47774 0.71088-0.47769 0.0929 5e-5 0.44754 0.36075 0.78812 0.80156 0.34058 0.44081 0.6699 0.85681 0.73183 0.92444 0.20519 0.22411 2.3751 2.9353 2.4537 3.0658 0.045 0.07473-0.17643 0.34472-0.53166 0.6482l-0.60881 0.52013-0.45322-0.47632c-0.24926-0.26197-0.47368-0.45233-0.4987-0.42302-0.27934 0.32726-3.5701 5.4659-3.5701 5.5748 0 0.08083 0.13321 0.30528 0.29602 0.49877l0.29603 0.3518-0.26619 0.28334-0.26619 0.28334 0.3072-0.1168c0.28965-0.11012 0.3209-0.08963 0.54674 0.35864 0.13174 0.26149 0.28917 0.53745 0.34984 0.61324 0.0831 0.10383 0.80067-0.20984 2.9105-1.2723 1.5401-0.77554 2.8288-1.4563 2.8637-1.5128 0.0349-0.0565-0.0634-0.35308-0.21844-0.65907-0.3184-0.62832-0.3353-0.5974 0.58255-1.066l0.59015-0.30131 0.98079 1.9428c1.1413 2.2607 1.3854 2.7741 1.3854 2.9135 0 0.09736-1.1626 0.66182-1.3632 0.66182-0.0532 0-0.22506-0.25332-0.38195-0.56294-0.15689-0.30962-0.31014-0.56294-0.34052-0.56294-0.20373 0-5.683 2.8424-5.683 2.948 0 0.19814 1.1644 2.4562 1.2665 2.4562 0.0486 0 0.65122-0.28232 1.3392-0.62738 0.68803-0.34506 1.2882-0.58572 1.3338-0.5348 0.25718 0.28738 0.81163 1.5222 0.72273 1.6097-0.13044 0.12826-3.873 2.0295-3.995 2.0295-0.0501 0-0.12872-0.06091-0.17473-0.13536zm-2.4459-14.698c0.18486-0.23221 0.55336-0.74398 0.81888-1.1373 0.35834-0.53076 0.42891-0.69779 0.27381-0.64807-0.69811 0.22378-2.3457 0.96185-2.3806 1.0664-0.043 0.12914 0.7299 1.1411 0.87158 1.1411 0.0441 0 0.23144-0.18999 0.41631-0.42221zm-10.103-2.6494c-0.96952-0.83317-3.1045-2.6515-3.3513-2.8542l-0.29228-0.24011 0.53946-0.63145 0.53946-0.63145 0.43419 0.34892c0.2388 0.19191 0.49441 0.32884 0.56802 0.30431 0.0736-0.02454 1.0377-1.1066 2.1424-2.4047l2.0085-2.3601-0.45464-0.41772c-0.29599-0.27195-0.42428-0.4684-0.36763-0.56294 0.17909-0.2989 0.88348-1.1022 0.96648-1.1022 0.0474 0 0.48323 0.34199 0.96841 0.75998s1.1303 0.96263 1.4335 1.2103c1.4585 1.1913 2.3635 2.0805 2.7401 2.6923 0.37677 0.61213 0.40974 0.73443 0.40974 1.5199 0 0.72388-0.0458 0.93158-0.30037 1.3609-0.66799 1.1267-1.5774 1.7084-2.6872 1.7188-0.82293 0.0077-1.5949-0.3477-2.7149-1.2501-0.47366-0.38163-0.90709-0.69387-0.96318-0.69387-0.10307 0-0.90769 0.89332-1.088 1.208-0.0723 0.12617 0.028 0.27871 0.38624 0.58723 0.44712 0.3851 0.47167 0.43411 0.32286 0.64466-0.19818 0.28039-0.87428 1.0517-0.91759 1.0468-0.0174-2e-3 -0.16238-0.11595-0.32223-0.25332zm4.9552-3.736c0.57257-0.29609 0.90853-0.80672 0.90853-1.3809 0-0.47457-0.049-0.56413-0.62193-1.1371-0.37397-0.37397-0.66184-0.58036-0.72205-0.51766-0.0551 0.05735-0.48269 0.55938-0.95027 1.1156l-0.85015 1.0114 0.29605 0.30901c0.33077 0.34525 1.1083 0.76424 1.4184 0.76438 0.11144 5e-5 0.34606-0.07409 0.52138-0.16475zm-10.238-0.27034c-0.6502-0.3523-1.7902-0.9639-2.5332-1.3591-2.3354-1.2421-3.5992-1.938-3.7078-2.042-0.1219-0.11659 0.49264-1.455 0.66796-1.4547 0.0619 9e-5 0.27847 0.1013 0.48122 0.22492 0.20275 0.12362 0.41744 0.22476 0.47709 0.22476 0.0597 0 0.29314-0.36732 0.51887-0.81627s0.88501-1.6881 1.4651-2.7536c0.58006-1.0655 1.0546-1.9891 1.0546-2.0525 0-0.06333-0.20266-0.21853-0.45036-0.3449-0.24769-0.12636-0.45035-0.2555-0.45035-0.28697 0-0.17296 0.69708-1.4019 0.79519-1.4019 0.064 0 0.93726 0.44973 1.9405 0.99941s2.3561 1.2799 3.0063 1.6228c2.3261 1.2265 2.5889 1.376 2.5892 1.4734 6.8e-4 0.18123-1.3644 2.6598-1.4648 2.6598-0.0766 0-1.382-0.71402-1.5541-0.85008-0.0196-0.01553 0.0962-0.2885 0.25736-0.6066 0.16119-0.3181 0.2651-0.62364 0.2309-0.67897-0.0731-0.11818-2.3552-1.3553-2.4959-1.353-0.0527 9.01e-4 -0.31799 0.41457-0.58946 0.91933-0.57027 1.0603-0.633 0.91897 0.74691 1.6829 0.44895 0.24853 0.81627 0.48951 0.81627 0.53551 0 0.20378-0.58319 1.2665-0.72485 1.3209-0.0864 0.03315-0.55893-0.17152-1.0501-0.45482-0.49116-0.2833-0.94792-0.51509-1.015-0.51509-0.11741 0-1.3277 2.1211-1.2467 2.1848 0.0219 0.01717 0.44504 0.24914 0.94043 0.51549s1.0634 0.58133 1.2624 0.69995l0.36163 0.21568 0.33978-0.54134c0.18687-0.29773 0.35613-0.58735 0.37612-0.64359 0.0515-0.14477 1.6743 0.72807 1.6339 0.87883-0.0602 0.22499-1.383 2.6549-1.4406 2.6461-0.031-0.0047-0.58828-0.29681-1.2385-0.64912zm-41.708-3.1958c-0.02373-0.0774-0.12347-0.39042-0.22164-0.69559-0.09817-0.30517-0.17849-0.59508-0.17849-0.64424 0-0.04916 0.27089-0.16814 0.60198-0.26439l0.60198-0.175-0.14707-0.56695c-0.15307-0.59011-1.738-5.5339-1.796-5.6021-0.0182-0.02142-0.30109 0.03961-0.62865 0.13563-0.45788 0.13422-0.6155 0.14323-0.6818 0.03895-0.07885-0.12401-0.4274-1.2247-0.4274-1.3496 0-0.08072 0.38398-0.2162 3.3214-1.1719 2.4733-0.80471 2.78-0.87916 3.6213-0.87916 0.84152 0 0.96017 0.02883 1.4047 0.34125 1.0862 0.7634 1.5431 2.2909 1 3.343-0.13669 0.26482-0.35784 0.59994-0.49143 0.74472l-0.2429 0.26323 1.2132 1.1707 1.2132 1.1707 0.47558-0.16569c0.26157-0.09113 0.53479-0.16642 0.60714-0.16732 0.12169-0.0015 0.67265 1.4285 0.5837 1.515-0.02185 0.02124-0.66041 0.24077-1.419 0.48784l-1.3793 0.44923-1.7117-1.6772c-0.94142-0.92247-1.7864-1.6772-1.8778-1.6772-0.09135 0-0.3329 0.06032-0.53676 0.13404-0.42473 0.15358-0.42622 0.12164 0.07517 1.6111 0.32894 0.97718 0.34734 0.9895 1.1849 0.7933 0.33458-0.07838 0.3468-0.06627 0.5348 0.53014 0.30463 0.96641 0.33518 0.92752-1.0742 1.3677-0.69664 0.21756-1.7479 0.54941-2.3362 0.73743-1.2218 0.39052-1.2306 0.39189-1.2887 0.20242zm2.6398-6.7938c1.4142-0.4912 1.85-1.2584 1.1722-2.0639-0.23619-0.28069-0.37707-0.3464-0.74265-0.3464-0.68114 0-1.668 0.31717-1.668 0.53608 0 0.24198 0.59219 2.0539 0.67059 2.0518 0.03368-9.01e-4 0.28923-0.08083 0.56788-0.17761zm30.097 5.7646c-0.50648-0.13058-0.94711-0.26429-0.97917-0.29712-0.0635-0.06504-1.3533-4.7037-1.8222-6.5538-0.16008-0.63154-0.3287-1.2155-0.3747-1.2977-0.0502-0.08966-0.21044 0.31442-0.40053 1.0098-0.17428 0.63762-0.48925 1.7821-0.69994 2.5433-0.21069 0.7612-0.35694 1.4263-0.325 1.478 0.0319 0.05168 0.28692 0.15158 0.56663 0.22202 0.27971 0.07043 0.50856 0.18734 0.50856 0.25979 0 0.29513-0.37478 1.4413-0.47129 1.4413-0.0571 0-0.56975-0.12712-1.1392-0.28248-0.56945-0.15536-1.4407-0.39145-1.9361-0.52464-0.49539-0.13319-0.93189-0.25817-0.96999-0.27774-0.0745-0.03827 0.23893-1.2503 0.37919-1.4663 0.0638-0.09818 0.2239-0.09376 0.64709 0.01788 0.65332 0.17234 0.63082 0.19295 0.90505-0.82897 0.11029-0.411 0.30923-1.1526 0.44208-1.648 0.52983-1.9757 0.90465-3.4458 0.90465-3.5481 0-0.05929-0.23231-0.16629-0.51624-0.23779-0.28393-0.07149-0.54106-0.19467-0.5714-0.27373-0.0303-0.07906 0.0324-0.45582 0.13943-0.83726 0.14862-0.52964 0.23707-0.6819 0.37437-0.64438 0.0989 0.02703 0.99042 0.26751 1.9812 0.5344 0.99078 0.2669 1.8116 0.49102 1.824 0.49807 0.0124 7e-3 0.32981 1.1257 0.70534 2.486 1.1439 4.1436 1.1705 4.2303 1.2516 4.0807 0.0429-0.07914 0.29002-0.92919 0.54915-1.889 0.25913-0.95982 0.49451-1.8283 0.52306-1.93 0.0401-0.14285-0.077-0.21584-0.51511-0.32093-0.31187-0.07482-0.58816-0.17022-0.61399-0.21201-0.054-0.08735 0.2975-1.4272 0.40174-1.5315 0.06-0.05997 0.75294 0.11366 3.671 0.91983 0.3251 0.08982 0.59109 0.19438 0.59109 0.23237 0 0.0904-0.36504 1.4235-0.40338 1.4731-0.0162 0.021-0.31621-0.02599-0.66664-0.10441-0.51819-0.11597-0.65388-0.11548-0.72686 0.0026-0.0493 0.07985-0.22611 0.68414-0.39282 1.3429-0.1667 0.65874-0.40052 1.5524-0.5196 1.9858s-0.42402 1.5481-0.67763 2.477c-0.25362 0.92886-0.51995 1.745-0.59184 1.8137-0.0961 0.09173-0.37494 0.06187-1.0516-0.11259zm-19.12-2.2084c-1.1672-0.14592-1.9399-0.52158-2.767-1.345-1.0607-1.0561-1.5587-2.2058-1.5649-3.6127-9e-3 -2.0389 1.2944-3.9648 3.1482-4.652 1.9855-0.73597 4.2919-0.5468 5.7751 0.47369 2.2569 1.5528 2.7403 5.1043 0.99025 7.2747-1.1336 1.4059-3.3399 2.1416-5.5817 1.8613zm1.978-1.8686c1.2986-0.38312 1.9961-1.6127 1.8741-3.3042-0.0995-1.3797-0.66065-2.3654-1.6077-2.8239-0.41305-0.19996-0.65601-0.23817-1.2875-0.20249-0.94546 0.05342-1.558 0.42566-2.0741 1.2605-0.28949 0.46824-0.34078 0.67522-0.38224 1.5424-0.0745 1.5587 0.34177 2.5605 1.338 3.2198 0.40538 0.26827 0.91585 0.44839 1.3513 0.47681 0.0971 0.0063 0.45178-0.06966 0.78812-0.16889z" fill="#d50618"/>
 </g>
</svg>
